# uv,model,feather,feather_ratio,feather_ratio_err,smclean,smclean_ratio,smclean_ratio_err,int,int_ratio,int_ratio_err,joint,joint_ratio,joint_ratio_err,tp2vis,tp2vis_ratio,tp2vis_ratio_err,
0.000000000000000000e+00,9.707145690917968750e+01,9.643272399902343750e+01,9.934199719413518981e-01,1.033569399179433933e-02,5.025507736206054688e+01,5.177121984383044051e-01,1.357528709877771182e-02,5.025507736206054688e+01,5.177121984383044051e-01,1.357528709877771182e-02,9.643273925781250000e+01,9.934196285378743552e-01,1.033569073170716342e-02,4.966216278076171875e+01,5.027442962575150442e-01,1.363014150558094703e-02
4.604125136414334634e+02,6.308846473693847656e+01,9.236125946044921875e+01,1.463995991114543926e+00,1.286589609808783292e-02,1.209503841400146484e+02,1.917155293671266580e+00,1.086727075399816084e-02,1.209503841400146484e+02,1.917155293671266580e+00,1.086727075399816084e-02,9.236127853393554688e+01,1.463995880950649475e+00,1.286589321708995690e-02,1.195233974456787109e+02,1.861727189252584624e+00,1.095219103565102207e-02
9.208250272828669267e+02,2.208610993623733521e+01,5.012016934156417847e+01,2.269307247236441949e+00,2.769842207635898890e-02,5.439746105670928955e+01,2.462971578687008112e+00,2.614940665080140586e-02,5.439746105670928955e+01,2.462971578687008112e+00,2.614940665080140586e-02,5.012015634775161743e+01,2.269305939419425933e+00,2.769842464860634151e-02,5.375567412376403809e+01,2.391763058464754899e+00,2.637068767287597745e-02
1.381237540924300447e+03,1.441159453392028844e+01,2.548737277984618999e+01,1.768532463209193217e+00,5.012661065315174996e-02,2.579362468719482493e+01,1.789782846477180112e+00,4.974478534741164082e-02,2.579362468719482493e+01,1.789782846477180112e+00,4.974478534741164082e-02,2.548730654716491628e+01,1.768526256647692696e+00,5.012667795863335468e-02,2.548930797576904439e+01,1.738037252411703371e+00,5.012417950983264620e-02
1.841650054565733853e+03,1.157682263851165771e+01,1.342604370911916156e+01,1.159734767332087468e+00,7.999082873910225155e-02,1.338134199380874634e+01,1.155873456097888496e+00,8.013409757743297779e-02,1.338134199380874634e+01,1.155873456097888496e+00,8.013409757743297779e-02,1.342604861656824689e+01,1.159735440342636537e+00,7.999082219204053934e-02,1.322346760829289813e+01,1.122455279036618236e+00,8.064421747070858737e-02
2.302062568207167260e+03,6.683952891826629994e+00,7.473227953910827281e+00,1.118085072539836355e+00,1.412710639069199858e-01,7.471257925033569336e+00,1.117790332449781765e+00,1.412907250818059290e-01,7.471257925033569336e+00,1.117790332449781765e+00,1.412907250818059290e-01,7.473244547843933105e+00,1.118088756393442074e+00,1.412709721323868184e-01,7.383111411333084462e+00,1.085473217957642067e+00,1.421760757538276243e-01
2.762475081848600894e+03,5.316566358009974458e+00,5.673259387413660981e+00,1.067090863799017741e+00,1.819865070047026467e-01,5.711726582712596922e+00,1.074326209454203651e+00,1.813517296602533135e-01,5.711726582712596922e+00,1.074326209454203651e+00,1.813517296602533135e-01,5.673241588804456725e+00,1.067090133387482931e+00,1.819870205337205393e-01,5.644338981972800262e+00,1.043265678932395524e+00,1.824666793448599389e-01
3.222887595490034073e+03,3.989675422509511460e+00,3.833372724552949418e+00,9.608232045457353321e-01,2.556548243603736781e-01,3.842735211054483901e+00,9.631698832877481076e-01,2.553492268943943766e-01,3.842735211054483901e+00,9.631698832877481076e-01,2.553492268943943766e-01,3.833360947668552399e+00,9.608228945497417905e-01,2.556555719356051748e-01,3.797398251170913230e+00,9.353230809331035678e-01,2.568358903242191627e-01
3.683300109131467707e+03,2.944358011441571499e+00,2.270763698699219013e+00,7.712254046128862450e-01,3.835001580329381876e-01,2.276181458096419252e+00,7.730654523843010217e-01,3.831021701243830790e-01,2.276181458096419252e+00,7.730654523843010217e-01,3.831021701243830790e-01,2.270765209570527077e+00,7.712272017540666713e-01,3.835004144052207020e-01,2.249326617590018618e+00,7.507147996089804654e-01,3.850830658489400871e-01
4.143712622772901341e+03,2.359570092388561857e+00,1.873700517628874129e+00,7.940855512930117266e-01,4.724479449216600901e-01,1.884188344436032336e+00,7.985303553871939686e-01,4.712803590904920958e-01,1.884188344436032336e+00,7.985303553871939686e-01,4.712803590904920958e-01,1.873690374195575714e+00,7.940825513882971975e-01,4.724495162452861385e-01,1.861958659120968473e+00,7.754436111411557864e-01,4.737620226523014400e-01
4.604125136414334520e+03,1.648770559031297100e+00,1.464727932039429081e+00,8.883758410266625605e-01,6.423642104648021878e-01,1.474974898731007400e+00,8.945907547000354620e-01,6.402570334372571503e-01,1.474974898731007400e+00,8.945907547000354620e-01,6.402570334372571503e-01,1.464732461992432011e+00,8.883767272309542884e-01,6.423625741707441605e-01,1.457572928246329891e+00,8.687266416006079739e-01,6.438438016243924755e-01
5.064537650055767699e+03,1.263679515104740858e+00,1.027110682567581534e+00,8.127936476697961155e-01,8.730611830067218637e-01,1.037094845902174711e+00,8.206945143177496460e-01,8.692725518397710349e-01,1.037094845902174711e+00,8.206945143177496460e-01,8.692725518397710349e-01,1.027100105304270983e+00,8.127831040066038071e-01,8.730639419042202087e-01,1.024859101162292063e+00,7.969669058491225533e-01,8.739201452769519429e-01
5.524950163697201788e+03,1.262760309875011533e+00,1.060377740580588535e+00,8.397300202486922549e-01,8.609044992430699983e-01,1.067370351776480764e+00,8.452675804184323072e-01,8.583209658219292937e-01,1.067370351776480764e+00,8.452675804184323072e-01,8.583209658219292937e-01,1.060378494765609414e+00,8.397303867113682374e-01,8.609041062806036537e-01,1.054777291696518571e+00,8.208294298361770158e-01,8.629849192711234185e-01
5.985362677338634967e+03,1.194529081816258609e+00,9.182342890164126858e-01,7.686998190284786148e-01,9.466275436286887279e-01,9.210832506094289718e-01,7.710848271763626194e-01,9.453527800657456348e-01,9.210832506094289718e-01,7.710848271763626194e-01,9.453527800657456348e-01,9.182296411498732658e-01,7.686966155141369272e-01,9.466301220682368234e-01,9.102162712294122882e-01,7.487915558025132201e-01,9.502337169225250069e-01
6.445775190980068146e+03,1.116602283733134859e+00,1.033060236749324012e+00,9.251819128432149375e-01,9.303785970791035309e-01,1.039342246949672699e+00,9.308079179946159298e-01,9.276676517120694410e-01,1.039342246949672699e+00,9.308079179946159298e-01,9.276676517120694410e-01,1.033064705065705580e+00,9.251845343566557078e-01,9.303759578756148896e-01,1.027080037038434535e+00,9.038967964699489155e-01,9.329740608581152950e-01
6.906187704621502235e+03,9.964557893884679052e-01,8.902491021435707808e-01,8.934155550342309793e-01,1.060049194220280766e+00,8.942260245482126502e-01,8.974066226229722165e-01,1.057819451828175605e+00,8.942260245482126502e-01,8.974066226229722165e-01,1.057819451828175605e+00,8.902469278934100894e-01,8.934132839002786319e-01,1.060050378066390797e+00,8.836759841069579124e-01,8.714612652659939895e-01,1.063755226199769144e+00
7.366600218262935414e+03,8.746672258324300619e-01,8.840828669878343371e-01,1.010764826756191059e+00,1.137171226409362301e+00,8.893063773090640334e-01,1.016736824067806744e+00,1.133803814545842448e+00,8.893063773090640334e-01,1.016736824067806744e+00,1.133803814545842448e+00,8.840835260537763807e-01,1.010765771388478118e+00,1.137170925498173668e+00,8.788141949723163870e-01,9.873412471146578717e-01,1.140588075967246873e+00
7.827012731904368593e+03,7.447896498287546185e-01,7.676176546013047108e-01,1.030650271224632153e+00,1.322395094325259590e+00,7.710912429631270326e-01,1.035314122773349110e+00,1.319364871943526696e+00,7.710912429631270326e-01,1.035314122773349110e+00,1.319364871943526696e+00,7.676169987896392932e-01,1.030647567390618358e+00,1.322394536744154747e+00,7.619937634866299492e-01,1.005381420149139116e+00,1.327330777818550578e+00
8.287425245545802682e+03,3.814944884429375405e-01,7.036768803372979164e-01,1.844526989654140303e+00,1.843026878093972032e+00,7.060064207762479782e-01,1.850633343768083527e+00,1.839078922183135623e+00,7.060064207762479782e-01,1.850633343768083527e+00,1.839078922183135623e+00,7.036731170490384546e-01,1.844513521620620322e+00,1.843032024754695630e+00,6.976768008122841147e-01,1.797128307098268429e+00,1.853273914820582569e+00
8.747837759187235861e+03,2.437295472870270319e-01,6.453095649679502221e-01,2.647646016459400453e+00,2.249619811356958987e+00,6.488993436718980545e-01,2.662374549556457914e+00,2.240572784790170413e+00,6.488993436718980545e-01,2.662374549556457914e+00,2.240572784790170413e+00,6.453122463077306525e-01,2.647649943972746556e+00,2.249611398748981639e+00,6.412434970339139229e-01,2.585400705244814468e+00,2.259955840276065775e+00
9.208250272828669040e+03,1.319421623503008179e-01,5.362105556433239828e-01,4.063981869720368678e+00,2.993327642227869845e+00,5.390120551230446200e-01,4.085214654069337925e+00,2.980829314303330868e+00,5.390120551230446200e-01,4.085214654069337925e+00,2.980829314303330868e+00,5.362045608701244692e-01,4.063924074181621826e+00,2.993352720294522040e+00,5.326526738823421647e-01,3.967103992320963002e+00,3.009352301527505436e+00
9.668662786470102219e+03,7.933182300378878449e-02,5.339700185642060060e-01,6.730842659933635730e+00,3.261037004041453358e+00,5.369183310411043131e-01,6.768006970109104792e+00,3.245435294210575083e+00,5.369183310411043131e-01,6.768006970109104792e+00,3.245435294210575083e+00,5.339708790545247830e-01,6.730830163318571202e+00,3.261030979381152495e+00,5.305837136951999655e-01,6.572332879946524820e+00,3.279142569189967382e+00
1.012907530011153540e+04,4.333466806394212223e-02,3.907585667364080195e-01,9.017227642307709345e+00,4.607305158579234394e+00,3.932329070453038922e-01,9.074326044567186500e+00,4.581192269030797348e+00,3.932329070453038922e-01,9.074326044567186500e+00,4.581192269030797348e+00,3.907553976374295024e-01,9.017125310919944070e+00,4.607337319882343962e+00,3.885937217650387021e-01,8.811977433665708404e+00,4.630397184107038377e+00
1.058948781375297040e+04,1.334086954593658413e-02,3.575722380940403178e-01,2.680276850491736695e+01,5.392098469437968333e+00,3.604582901378827198e-01,2.701910013411925959e+01,5.350466816703692174e+00,3.604582901378827198e-01,2.701910013411925959e+01,5.350466816703692174e+00,3.575734275792326056e-01,2.680274089839359775e+01,5.392080338878214363e+00,3.562056639098695188e-01,2.623794118398579656e+01,5.412038319767323635e+00
1.104990032739440358e+04,5.189435213412109220e-03,2.803084238211771551e-01,5.401520826326520108e+01,7.005306473270931811e+00,2.827281637828013006e-01,5.448149021151466087e+01,6.946431920010223138e+00,2.827281637828013006e-01,5.448149021151466087e+01,6.946431920010223138e+00,2.803070473876830837e-01,5.401460301857202495e+01,7.005339449779308225e+00,2.793924853230189131e-01,5.290633741533566337e+01,7.027853337380117082e+00
1.151031284103583675e+04,0.000000000000000000e+00,2.349348355949457123e-01,inf,8.512998912805874951e+00,2.375514405541166441e-01,inf,8.419229095537223984e+00,2.375514405541166441e-01,inf,8.419229095537223984e+00,2.349339163684774079e-01,inf,8.513032221636061436e+00,2.347487922525033355e-01,inf,8.519745643030766757e+00
1.197072535467726993e+04,0.000000000000000000e+00,1.951897730786268659e-01,inf,1.024643847090469606e+01,1.972912538172253705e-01,inf,1.013729682032859181e+01,1.972912538172253705e-01,inf,1.013729682032859181e+01,1.951894848924976833e-01,inf,1.024645359918602949e+01,1.949635127040726945e-01,inf,1.025832973698888928e+01
1.243113786831870311e+04,0.000000000000000000e+00,1.727920880927363567e-01,inf,1.157460403468597043e+01,1.754732098453110345e-01,inf,1.139775126791779947e+01,1.754732098453110345e-01,inf,1.139775126791779947e+01,1.727907616395230606e-01,inf,1.157469288880391645e+01,1.734028245299691073e-01,inf,1.153383749902148381e+01
1.289155038196013629e+04,0.000000000000000000e+00,1.473665252934941716e-01,inf,1.357160315761543323e+01,1.495501067921785332e-01,inf,1.337344414457215258e+01,1.495501067921785332e-01,inf,1.337344414457215258e+01,1.473664572584398313e-01,inf,1.357160942325264408e+01,1.477856545742335104e-01,inf,1.353311324946894345e+01
1.335196289560157129e+04,0.000000000000000000e+00,1.193717482237843797e-01,inf,1.675438309113669533e+01,1.215319569067408595e-01,inf,1.645657694407674398e+01,1.215319569067408595e-01,inf,1.645657694407674398e+01,1.193707151881729517e-01,inf,1.675452808377038849e+01,1.200979316927259788e-01,inf,1.665307613387595609e+01
1.381237540924300447e+04,0.000000000000000000e+00,1.095534534586167508e-01,inf,1.825592837888483189e+01,1.116252128323391435e-01,inf,1.791709909663505940e+01,1.116252128323391435e-01,inf,1.791709909663505940e+01,1.095532857933071841e-01,inf,1.825595631858431744e+01,1.103082676529587164e-01,inf,1.813100724500731076e+01
1.427278792288443765e+04,0.000000000000000000e+00,9.535995449718590034e-02,inf,2.097316437015519597e+01,9.720220101119664280e-02,inf,2.057566576881959364e+01,9.720220101119664280e-02,inf,2.057566576881959364e+01,9.535948665982757477e-02,inf,2.097326726531705532e+01,9.605538028923686633e-02,inf,2.082132197048937883e+01
1.473320043652587083e+04,0.000000000000000000e+00,6.675033544257552576e-02,inf,2.996239624474359076e+01,6.786073855663010690e-02,inf,2.947212250469379313e+01,6.786073855663010690e-02,inf,2.947212250469379313e+01,6.674988137513220010e-02,inf,2.996260006456137148e+01,6.706012691460909447e-02,inf,2.982398173130058083e+01
1.519361295016730401e+04,0.000000000000000000e+00,2.233145591162610799e-02,inf,8.955976752768584959e+01,2.225930801796494052e-02,inf,8.985005276830030141e+01,2.225930801796494052e-02,inf,8.985005276830030141e+01,2.233177396919927560e-02,inf,8.955849198359550201e+01,2.199687255415483378e-02,inf,9.092201607642783756e+01
1.565402546380873719e+04,0.000000000000000000e+00,1.690244827149135418e-02,inf,1.183260535914974838e+02,1.681349297136729148e-02,inf,1.189520823189994019e+02,1.681349297136729148e-02,inf,1.189520823189994019e+02,1.690280478402611877e-02,inf,1.183235578683418510e+02,1.661523195329092303e-02,inf,1.203714763430592143e+02
1.611443797745017037e+04,0.000000000000000000e+00,1.192354594933844707e-02,inf,1.677353371637709643e+02,1.185009098567423383e-02,inf,1.687750754334149974e+02,1.185009098567423383e-02,inf,1.687750754334149974e+02,1.192369590336013474e-02,inf,1.677332277013533712e+02,1.171047690912105539e-02,inf,1.707872374046730783e+02
1.657485049109160536e+04,0.000000000000000000e+00,1.151968763999479048e-02,inf,1.736158186317719014e+02,1.144376429020548674e-02,inf,1.747676681624563173e+02,1.144376429020548674e-02,inf,1.747676681624563173e+02,1.152007836524559029e-02,inf,1.736099301228462650e+02,1.130880899322421647e-02,inf,1.768532832412608116e+02
1.703526300473303854e+04,0.000000000000000000e+00,1.021038034377852455e-02,inf,1.958790889918862774e+02,1.011929087690077722e-02,inf,1.976423075815899040e+02,1.011929087690077722e-02,inf,1.976423075815899040e+02,1.021046927780844271e-02,inf,1.958773828688583478e+02,9.999974550737533718e-03,inf,2.000005089865446450e+02
1.749567551837447172e+04,0.000000000000000000e+00,8.381068774992051634e-03,inf,2.386330495184245422e+02,8.291880449499277814e-03,inf,2.411998113311889540e+02,8.291880449499277814e-03,inf,2.411998113311889540e+02,8.381026214919984341e-03,inf,2.386342613318140593e+02,8.193924940903396861e-03,inf,2.440832707676104292e+02
1.795608803201590490e+04,0.000000000000000000e+00,8.239745977334678173e-03,inf,2.427259293552812665e+02,8.152432506904006004e-03,inf,2.453255513990788472e+02,8.152432506904006004e-03,inf,2.453255513990788472e+02,8.239662905301278414e-03,inf,2.427283765107950444e+02,8.056446201711272778e-03,inf,2.482484149866450025e+02
1.841650054565733808e+04,0.000000000000000000e+00,8.107919886242598295e-03,inf,2.466723929270158635e+02,8.021585395908914506e-03,inf,2.493272715166778823e+02,8.021585395908914506e-03,inf,2.493272715166778823e+02,8.108414796879515052e-03,inf,2.466573368656090963e+02,7.926864796900190413e-03,inf,2.523065614518999098e+02
1.887691305929877126e+04,0.000000000000000000e+00,7.920833579687909173e-03,inf,2.524986770494428754e+02,7.836442631246014548e-03,inf,2.552178448962874313e+02,7.836442631246014548e-03,inf,2.552178448962874313e+02,7.921117855320599158e-03,inf,2.524896152954729587e+02,7.744191299107941635e-03,inf,2.582580830913075829e+02
1.933732557294020444e+04,0.000000000000000000e+00,7.723144808551296592e-03,inf,2.589618671639485683e+02,7.639777031727135181e-03,inf,2.617877448116907999e+02,7.639777031727135181e-03,inf,2.617877448116907999e+02,7.723526359768584371e-03,inf,2.589490741454432055e+02,7.549837377155199647e-03,inf,2.649063681890331736e+02
1.979773808658163762e+04,0.000000000000000000e+00,7.638427522033452641e-03,inf,2.618339958363017672e+02,7.555224676616489540e-03,inf,2.647174750725843637e+02,7.555224676616489540e-03,inf,2.647174750725843637e+02,7.637873594649136240e-03,inf,2.618529850246722503e+02,7.466059504076838146e-03,inf,2.678789258119227270e+02
2.025815060022307080e+04,0.000000000000000000e+00,7.621037657372653484e-03,inf,2.624314548643102398e+02,7.539636571891605854e-03,inf,2.652647751558963591e+02,7.539636571891605854e-03,inf,2.652647751558963591e+02,7.621608441695570946e-03,inf,2.624118013014930284e+02,7.450408767908811569e-03,inf,2.684416469354824244e+02
2.071856311386450761e+04,0.000000000000000000e+00,7.613852620124816895e-03,inf,2.626791060695910005e+02,7.533356547355651855e-03,inf,2.654859075669314166e+02,7.533356547355651855e-03,inf,2.654859075669314166e+02,7.613822817802429199e-03,inf,2.626801342583984820e+02,7.444038987159729004e-03,inf,2.686713494448125630e+02
