# uv,sd,feather,feather_ratio,feather_ratio_err,smclean,smclean_ratio,smclean_ratio_err,int,int_ratio,int_ratio_err,joint,joint_ratio,joint_ratio_err,tp2vis,tp2vis_ratio,tp2vis_ratio_err,
0.000000000000000000e+00,6.903205566406250000e+03,9.643271636962890625e+01,1.000000018668284918e+00,2.857290504455682698e-04,8.821678924560546875e+01,9.148014720888352214e-01,2.860648231876884153e-04,6.339998626708984375e+01,6.574530909991708194e-01,2.870838581111467445e-04,9.730799102783203125e+01,1.009076304314363570e+00,2.856932659433446611e-04,5.767081451416015625e+01,5.876852135844705671e-01,2.873201434063604970e-04
4.604125136414334634e+02,2.643917266845703125e+03,6.836946916580200195e+01,1.851146374232018443e+00,7.373851641294596046e-04,6.120938205718994141e+01,1.657282512891371962e+00,7.393369182219736591e-04,7.231671094894409180e+01,1.958020427873720326e+00,7.363135931403932966e-04,6.789674425125122070e+01,1.838347308723064177e+00,7.375138300130029603e-04,7.256385517120361328e+01,1.930687440825007872e+00,7.362466036631461338e-04
9.208250272828669267e+02,1.949062838554382324e+02,2.370324975252151489e+01,8.705795579331601530e+00,9.148731837041797210e-03,1.997219577431678772e+01,7.335443683754626853e+00,9.307586331800593582e-03,2.411162611842155457e+01,8.855785188270260733e+00,9.131673296666486389e-03,2.362422740459442139e+01,8.676766868377582043e+00,9.152035497199447617e-03,2.835957580804824829e+01,1.023560161498855514e+01,8.957930258636339141e-03
1.381237540924300447e+03,1.426880848407745361e+01,1.477460398674011266e+01,7.412326722927434730e+01,6.886243143809542278e-02,1.485482449531555105e+01,7.452572852026678163e+01,6.867275114389537194e-02,1.490855848789215088e+01,7.479530861152511534e+01,6.854628116105813962e-02,1.476440274715423584e+01,7.407228951105406622e+01,6.888672033622704471e-02,1.642580695152282644e+01,8.098013384527590119e+01,6.515800806158192349e-02
1.841650054565733853e+03,8.813913730904459953e+00,1.128946876525878906e+01,9.169193225303219208e+01,9.948574576351526533e-02,1.139719096819559674e+01,9.256684117383319688e+01,9.895550143229205065e-02,1.123322953780492206e+01,9.123516289205646501e+01,9.976483797178739565e-02,1.126953154802322388e+01,9.153185928180008091e+01,9.958539433798670182e-02,1.129051077365875244e+01,9.011234237941489766e+01,9.948058943672070942e-02
2.302062568207167260e+03,4.096367001067847013e+00,6.720725953578948975e+00,1.174474905378068286e+02,1.848925592472459856e-01,6.639720726013183416e+00,1.160318903833359201e+02,1.862875985034231630e-01,6.712091743946075439e+00,1.172966041214936581e+02,1.850402584848302445e-01,6.699156630039214910e+00,1.170737299053015050e+02,1.852638794293330615e-01,6.978058964014053345e+00,1.198326768233514628e+02,1.805962680418902455e-01
2.762475081848600894e+03,3.726474070093698021e+00,5.141655974917942018e+00,9.877142629317408762e+01,2.255266882475419343e-01,5.138899412420061097e+00,9.871847261231519610e+01,2.255968125815387693e-01,5.170899045136239991e+00,9.933318689496131526e+01,2.247854478055474337e-01,5.158763089113765687e+00,9.910296204193051040e+01,2.250952449984871262e-01,5.352274331781599059e+00,1.010368380064534222e+02,2.202946828647528166e-01
3.222887595490034073e+03,2.394873578256616842e+00,3.969480540603399277e+00,1.186526653875539381e+02,3.142502699642741315e-01,3.960394269476334106e+00,1.183810655455513228e+02,3.146995607295197117e-01,3.966737214475870132e+00,1.185706639886985556e+02,3.143857845382183602e-01,3.955807874600092422e+00,1.182478355261894905e+02,3.149307170299384118e-01,4.048695719490448930e+00,1.189246907262591009e+02,3.103869777111392669e-01
3.683300109131467707e+03,1.796604498023433250e+00,2.832885063120297087e+00,1.128763313530271688e+02,4.320130704660005150e-01,2.898978860782725597e+00,1.155098393277936566e+02,4.259321679912621561e-01,2.825875764446599270e+00,1.125970457830106994e+02,4.326681535534119272e-01,2.837995861257825769e+00,1.130835447490049290e+02,4.315419606668465802e-01,3.053954230887549137e+00,1.195775156326906909e+02,4.123236335804612573e-01
4.143712622772901341e+03,1.590620804112404585e+00,2.275900456522192083e+00,1.024266617160845811e+02,5.172608309081813127e-01,2.387956528791359556e+00,1.074697335141745356e+02,5.026922521926450171e-01,2.272445491382053984e+00,1.022711713717526578e+02,5.177234473901274336e-01,2.276258497365883482e+00,1.024463981458087432e+02,5.172204674848028816e-01,2.307358012667724001e+00,1.020440793569090658e+02,5.130864209395761266e-01
4.604125136414334520e+03,1.187722886529039013e+00,1.707480378887232586e+00,1.029122351190170406e+02,6.907977840072104803e-01,1.699767289792790237e+00,1.024473564309828646e+02,6.926430491090568298e-01,1.715647447635145761e+00,1.034044757969252402e+02,6.888545964894123852e-01,1.710403688690241619e+00,1.030918815440428347e+02,6.901104696816507955e-01,1.760472605333608831e+00,1.042686213048217923e+02,6.783810658147418904e-01
5.064537650055767699e+03,1.147539557336131111e+00,1.257442664704285562e+00,7.844168975067074712e+01,8.316069789086321107e-01,1.300534161273390055e+00,8.112982011211407496e+01,8.169688620063197959e-01,1.257348374696448445e+00,7.843580775879235034e+01,8.316395842652120063e-01,1.266753365285694599e+00,7.902500693325613668e+01,8.284123518296029332e-01,1.283732920885086060e+00,7.869488376235065630e+01,8.226145024531568151e-01
5.524950163697201788e+03,8.522665604483335988e-01,1.205870675668120340e+00,1.012865315054188642e+02,9.717524977944841380e-01,1.154755746945738792e+00,9.699315747874867100e+01,9.965011313684947192e-01,1.211639353260397955e+00,1.017710688247885997e+02,9.690364210479459617e-01,1.214435199648141950e+00,1.020094996594292240e+02,9.677395801253875218e-01,1.232877362333238080e+00,1.017615970699717423e+02,9.591664048455753599e-01
5.985362677338634967e+03,6.930700059291785564e-01,1.173016771026279548e+00,1.211584004494488909e+02,1.071761519720440203e+00,1.164713119035181821e+00,1.203007339454567273e+02,1.076551925316022951e+00,1.168385810826135796e+00,1.206800784473656876e+02,1.074427865543529537e+00,1.168132599281228146e+00,1.206580799038614913e+02,1.074587831628563084e+00,1.158949676415194530e+00,1.176324003443655215e+02,1.079902130126558113e+00
6.445775190980068146e+03,6.755344794682142107e-01,1.150553345680236816e+00,1.219230036111830202e+02,1.095237574259283253e+00,1.173743088475682539e+00,1.243803977904332925e+02,1.081503412288552735e+00,1.155793456191366309e+00,1.224782929553669959e+02,1.092103692111085378e+00,1.152109233154491985e+00,1.220923720622727444e+02,1.094320086592768693e+00,1.152941977097229564e+00,1.200602977019978823e+02,1.093806809936585633e+00
6.906187704621502235e+03,5.853383360663428903e-01,9.801920281412700442e-01,1.198755496034787313e+02,1.277522330914541149e+00,1.010791468434035778e+00,1.236178007311582405e+02,1.253030921646150819e+00,9.767466096673160791e-01,1.194541817272653361e+02,1.280340102798101620e+00,9.803227894784262153e-01,1.198958035271010232e+02,1.277432626991765297e+00,9.744150424376130104e-01,1.171052851235993444e+02,1.282253994486172166e+00
7.366600218262935414e+03,5.545025193326486024e-01,8.365207595828300091e-01,1.079939965250249116e+02,1.437790459955001321e+00,8.502890642266720533e-01,1.097714709353480487e+02,1.423698734678207289e+00,8.396439120794335631e-01,1.083971924003233624e+02,1.434569536554542557e+00,8.430790207348763943e-01,1.088435087229685365e+02,1.431058386228663881e+00,8.240726263805603358e-01,1.045445624520056356e+02,1.450773290247660441e+00
7.827012731904368593e+03,4.404916209008159500e-01,7.211924879329985050e-01,1.172033315051991593e+02,1.721638425447473475e+00,7.210449176230306900e-01,1.171793493752562085e+02,1.721857155300275721e+00,7.219283442045080212e-01,1.173229178957577830e+02,1.720548562514396362e+00,7.245452463755319705e-01,1.177522660056583135e+02,1.716706309953802245e+00,7.235836891521667535e-01,1.155554948478075232e+02,1.718101898329043697e+00
8.287425245545802682e+03,4.082893147598952166e-01,6.095693954577048324e-01,1.068763353460670231e+02,1.964909255010880429e+00,5.972987985238432662e-01,1.047249208515530796e+02,1.988885880391941807e+00,6.092527619873483458e-01,1.068208197227240959e+02,1.965520685290341962e+00,6.084272191549341402e-01,1.066800530863198304e+02,1.967146099535193704e+00,6.015525080884496223e-01,1.036442020726975670e+02,1.980508189251688700e+00
8.747837759187235861e+03,3.915708764766653305e-01,5.073892688068251111e-01,9.275926707134408389e+01,2.224792734687134121e+00,4.995883741881698148e-01,9.133313271688902546e+01,2.244267787724732788e+00,5.092377260948220963e-01,9.309719606154621374e+01,2.220227464847374765e+00,5.080373758760591274e-01,9.288162999809489406e+01,2.223230357303581872e+00,5.047398283456762114e-01,9.067690269740356257e+01,2.231369088017777891e+00
9.208250272828669040e+03,3.660407094960851926e-01,4.058385393432071275e-01,7.936889092731790640e+01,2.591078854636247097e+00,4.030957992879613538e-01,7.883249968995762913e+01,2.600318639355537087e+00,4.071305585244009428e-01,7.962156808714144063e+01,2.586748994334082674e+00,4.069539080824582933e-01,7.959021293859733248e+01,2.587389314440960320e+00,4.002053078804765907e-01,7.691179383471254027e+01,2.610127758768011841e+00
9.668662786470102219e+03,3.071901256011592141e-01,3.546964747882965785e-01,8.265631404867457377e+01,3.021665643062112050e+00,3.487904480943042618e-01,8.128000942797076789e+01,3.048870774835616526e+00,3.555419568567433353e-01,8.285334005919177969e+01,3.017810745757946389e+00,3.554047299807684412e-01,8.282511582038004860e+01,3.018499228408087820e+00,3.466537857505803122e-01,7.938312304774122197e+01,3.058834020286665734e+00
1.012907530011153540e+04,3.149411582442767643e-01,2.644289185991510749e-01,6.010435521289664251e+01,3.452025018096492204e+00,2.639030027956537627e-01,5.998481522297066704e+01,3.455161396820298325e+00,2.649284082273131169e-01,6.021788856694601577e+01,3.449051503374575223e+00,2.659364143413874837e-01,6.044917028332807973e+01,3.443133174516956885e+00,2.647377529099364524e-01,5.913245945595743791e+01,3.450185890008918843e+00
1.058948781375297040e+04,2.985548523254692443e-01,2.059855566626148660e-01,4.939000263751633923e+01,3.964003604807865511e+00,2.028500580628003480e-01,4.863819126479753407e+01,3.988792208778476400e+00,2.066494843789509483e-01,4.954919531195548643e+01,3.958794204037364484e+00,2.068158989240016232e-01,4.959098002919642312e+01,3.957579446950721280e+00,2.023725006197180099e-01,4.768335983789954469e+01,3.992594910701243727e+00
1.104990032739440358e+04,2.696220900275205223e-01,1.557764947340872785e-01,4.135927051584923930e+01,4.701473092866057968e+00,1.514422746565143862e-01,4.020851808064031729e+01,4.749867639596602409e+00,1.569725148330785858e-01,4.167681854452336410e+01,4.688291828382480375e+00,1.566640351543595044e-01,4.159609788910888284e+01,4.691768900127031294e+00,1.580461777354541519e-01,4.123519104356361709e+01,4.676521852934046208e+00
1.151031284103583675e+04,2.405958006524347714e-01,1.186835858804572846e-01,3.531254596856355477e+01,5.566698438505878421e+00,1.180846970611517943e-01,3.513435545632975021e+01,5.575993154768730697e+00,1.199780095512757022e-01,3.569768259078031747e+01,5.546714551647764502e+00,1.190491442213810619e-01,3.542250339716690632e+01,5.561165412750737502e+00,1.240274964421544113e-01,3.626347504520273191e+01,5.485113035663125913e+00
1.197072535467726993e+04,2.259345672950572037e-01,9.219291828445751180e-02,2.921065494391559270e+01,6.286787815132395707e+00,8.866588130000639667e-02,2.809313895413702866e+01,6.357270019580583131e+00,9.323327387259765231e-02,2.954028403766410449e+01,6.266295478526688889e+00,9.383275767851789739e-02,2.973128011747408195e+01,6.254704552544687601e+00,9.647719454634087755e-02,3.003872321585474126e+01,6.203247637671006842e+00
1.243113786831870311e+04,2.381234784587854258e-01,6.920698705049822819e-02,2.080530747083028942e+01,6.507652915846655617e+00,6.747501041234765795e-02,2.028463307038681407e+01,6.544534979174501999e+00,6.881696823416505460e-02,2.068805830656166123e+01,6.515921969712614725e+00,7.045963020688604528e-02,2.118285876907608056e+01,6.481466813941735516e+00,7.802142454424827733e-02,2.304894981563825951e+01,6.326213014988282701e+00
1.289155038196013629e+04,2.300030500350874751e-01,5.526555163253631109e-02,1.720074779265319265e+01,7.010936318642835730e+00,4.799413911227713714e-02,1.493760684566797536e+01,7.194317345920401507e+00,5.662583909829014411e-02,1.762412114065691071e+01,6.977663717174494629e+00,5.728698441193306318e-02,1.783060117023278579e+01,6.961826891825832142e+00,6.561549735765549729e-02,2.006837994316970963e+01,6.765475365599801449e+00
1.335196289560157129e+04,2.005369529166879661e-01,4.464857471612049267e-02,1.593821210022912105e+01,8.157088304963961534e+00,4.185621718594726565e-02,1.494142358327106379e+01,8.251057565496383361e+00,4.491166639733516069e-02,1.603212799885894668e+01,8.148344878001662295e+00,4.310348184177806991e-02,1.538725354168317061e+01,8.209078934956062668e+00,5.304156847220534848e-02,1.860636049161184502e+01,7.887103328174858596e+00
1.381237540924300447e+04,2.032496366535927745e-01,4.394168981123081769e-02,1.547652273585049798e+01,8.090898773038498248e+00,3.757603603484545307e-02,1.323450187088137575e+01,8.304762435305002910e+00,4.515705807406970168e-02,1.590458261777724225e+01,8.051312796511682635e+00,4.380901209252113793e-02,1.543041323005076393e+01,8.095511798807663695e+00,5.331119706983024342e-02,1.845134976031091512e+01,7.795422126496650783e+00
1.427278792288443765e+04,1.837958360153537085e-01,3.581504099174008526e-02,1.394942153893417114e+01,9.107017044221342061e+00,3.431037102591989740e-02,1.336337514476586108e+01,9.169844486000931383e+00,3.579174603622119893e-02,1.394034850298989703e+01,9.107983162409686528e+00,3.584791183395562297e-02,1.396279460636886149e+01,9.105965638820689989e+00,4.093790246686414280e-02,1.566857149971762730e+01,8.899420325169604240e+00
1.473320043652587083e+04,1.186074795010668009e-01,2.998244649161169520e-02,1.809595069448354820e+01,1.345986268341331815e+01,2.515306968258761156e-02,1.518117305465245259e+01,1.391202253578619619e+01,3.065932249907735163e-02,1.850448022728215847e+01,1.339882661918400863e+01,2.923210677212168679e-02,1.764347991690870998e+01,1.352842150069629135e+01,3.411530720978885739e-02,2.023376465744308206e+01,1.309562274938398829e+01
1.519361295016730401e+04,8.471825920423725620e-03,1.641624575768219074e-02,1.387149391369744933e+02,8.035978141928141838e+01,1.722084516086397343e-02,1.455136895266473402e+02,7.784321037202805371e+01,1.642062196424376452e-02,1.387519174592900981e+02,8.034565380096267972e+01,1.412640554917743430e-02,1.193747117395209187e+02,8.850489122441463508e+01,1.788813451912574237e-02,1.485345598455022014e+02,7.587264801047565754e+01
1.565402546380873719e+04,7.847772791020331956e-03,1.252576250643018703e-02,1.142573549888527964e+02,9.816656612611919286e+01,1.291920741336540293e-02,1.178462761724674266e+02,9.630673214479321587e+01,1.250210943098570629e-02,1.140415966399098977e+02,9.828066709090001041e+01,1.011299244806474623e-02,9.225608891068391415e+01,1.113577934236245568e+02,1.251204621099356179e-02,1.121557137780600044e+02,9.823270038904421142e+01
1.611443797745017037e+04,7.255132409877010878e-03,8.369762729368327228e-03,8.258367733856243831e+01,1.280008590250672000e+02,9.570797489903356409e-03,9.443417661118735396e+01,1.188641585881150178e+02,8.379178273441669628e-03,8.267657964402346238e+01,1.279237723050967190e+02,8.671915514804865929e-03,8.558399352218867762e+01,1.255852523246401233e+02,1.016930633202372571e-02,9.860194270209024126e+01,1.147813154630099177e+02
1.657485049109160536e+04,6.830928872501396652e-03,7.301774388748605814e-03,7.652001748533334080e+01,1.415157428150164662e+02,8.072520196551720775e-03,8.459716141636479847e+01,1.341971238156530433e+02,7.291905057133155413e-03,7.641659037466467908e+01,1.416146369747585823e+02,6.241649064695989173e-03,6.541318604774923529e+01,1.529955681821583369e+02,8.268014302302617580e-03,8.514535111905320264e+01,1.324596017645426969e+02
1.703526300473303854e+04,6.652037533058319241e-03,4.382485481073672418e-03,4.716199945027714335e+01,1.812493387741895106e+02,4.674930637065699557e-03,5.030914011867091062e+01,1.765697554686517776e+02,4.344514269405408413e-03,4.675337327876810889e+01,1.818751946907492538e+02,3.223020843051926931e-03,3.467952706392323847e+01,2.025110800457150333e+02,5.482357471919385716e-03,5.797652001189783277e+01,1.648207429525387226e+02
1.749567551837447172e+04,6.423788638237644746e-03,2.509002653823699802e-03,2.795994364041908398e+01,2.238941820769302922e+02,2.208209209664560493e-03,2.460794728709516122e+01,2.316960725941388830e+02,2.492487280131386231e-03,2.777589883005038374e+01,2.243088951385704490e+02,2.012048688330276679e-03,2.242375293853343976e+01,2.370981634722316755e+02,4.688310992017196907e-03,5.134103908788413406e+01,1.799839874144588237e+02
1.795608803201590490e+04,6.282437660653765292e-03,1.625341280638773920e-03,1.852007716234659540e+01,2.529155170937412151e+02,1.171848606342488662e-03,1.335271974604732925e+01,2.683020115359630609e+02,1.582954506375244819e-03,1.803709777864755281e+01,2.542784844707188370e+02,1.517308226842336129e-03,1.729541629792299418e+01,2.564942317489856123e+02,4.021766382114340573e-03,4.503271554786926600e+01,1.940955353464374014e+02
1.841650054565733808e+04,6.171299202833324671e-03,1.299862489759107120e-03,1.507812094489163890e+01,2.676959865536006760e+02,1.478130790928844362e-03,1.714599429830750665e+01,2.614573898487765859e+02,1.279422015613818076e-03,1.484101590973464013e+01,2.684303896713013842e+02,1.498539817475830205e-03,1.737207332158073569e+01,2.606329736515046420e+02,4.069514503498794511e-03,4.638798227947769703e+01,1.952969810165920990e+02
1.887691305929877126e+04,6.036644621582870976e-03,1.054321321248608001e-03,1.250269951157740067e+01,2.820490207010336121e+02,1.067118042556103319e-03,1.265444979682396642e+01,2.815409374663298649e+02,1.020254267959072418e-03,1.209871438679633471e+01,2.834106073085338267e+02,7.757653924768833330e-04,9.201498503498788395e+00,2.936401898363224063e+02,3.749028192198073164e-03,4.368804203979823342e+01,2.043804282096418206e+02
1.933732557294020444e+04,5.952277890173718333e-03,9.469912110944278538e-04,1.138909363902890703e+01,2.898857792968797753e+02,7.919976578705245629e-04,9.525046675939584873e+00,2.965477886768691747e+02,8.849292134982533753e-04,1.064269821976081865e+01,2.925171008679677698e+02,8.657787020638352260e-04,1.040676825775662095e+01,2.932006391840737365e+02,3.634607448475435376e-03,4.295500742042123932e+01,2.086183290350911079e+02
1.979773808658163762e+04,5.933203245513140808e-03,4.761795604281360500e-04,5.745236859033036936e+00,3.120425258647476880e+02,9.123635274590924816e-04,1.100791592583791711e+01,2.921598848318051864e+02,4.310078764319769215e-04,5.200228115596027045e+00,3.142573308266889285e+02,6.457239396695513278e-04,7.792474734058680852e+00,3.040585994637044109e+02,3.936724446248263121e-03,4.667510206175111875e+01,2.026357297094926082e+02
2.025815060022307080e+04,5.998398177325725555e-03,2.866012728190980852e-04,3.420339670862734938e+00,3.182180071557388032e+02,7.583711558254435658e-04,9.050507431434345662e+00,2.959994490543390384e+02,2.122771657013799995e-04,2.533345382331987583e+00,3.220261709936995089e+02,2.633129770401865244e-04,3.141890425175861701e+00,3.193505509854356319e+02,3.816364798694849014e-03,4.475628956794295732e+01,2.037746611799387608e+02
2.071856311386450761e+04,5.742192268371582031e-03,5.103740841150283813e-04,6.362639208499893506e+00,3.198686566844046979e+02,8.002743124961853027e-04,9.976714877818757543e+00,3.056951037164836293e+02,4.302002489566802979e-04,5.363142558980866781e+00,3.240234632494995139e+02,6.958805024623870850e-04,8.712536868369920029e+00,3.118414465487347798e+02,3.687344491481781006e-03,4.517263956053770357e+01,2.120994966067772793e+02
