# uv,model,feather,feather_ratio,feather_ratio_err,smclean,smclean_ratio,smclean_ratio_err,int,int_ratio,int_ratio_err,joint,joint_ratio,joint_ratio_err,tp2vis,tp2vis_ratio,tp2vis_ratio_err,
0.000000000000000000e+00,7.364009380340576172e+00,7.355621814727783203e+00,9.988610055773169405e-01,1.358729694715501146e-01,7.414639472961425781e+00,1.006875343309042270e+00,1.353303688214460010e-01,7.388607978820800781e+00,1.003340381198575715e+00,1.355691638513215891e-01,7.365661144256591797e+00,1.000224334678724070e+00,1.357803666691194400e-01,6.039294600486755371e-02,8.059070465639129460e-03,2.693819531981736515e-01
4.604125136414334634e+02,7.174793243408203125e+00,7.179723262786865234e+00,1.000687130515320655e+00,1.393289700239536133e-01,7.124664008617401123e+00,9.930131457325466204e-01,1.398654483698454909e-01,7.123176455497741699e+00,9.928058152814530635e-01,1.398799998962815261e-01,7.140543520450592041e+00,9.952263166368408021e-01,1.397102981006893008e-01,6.602961122989654541e+00,9.043622394617591986e-01,1.451615369829599156e-01
9.208250272828669267e+02,6.695286959409713745e+00,6.669705599546432495e+00,9.961791988874608705e-01,1.496446774046095718e-01,6.640023857355117798e+00,9.917459696067354447e-01,1.499777566103407400e-01,6.639750540256500244e+00,9.917051472939242274e-01,1.499808305788462581e-01,6.642744809389114380e+00,9.921522914807877624e-01,1.499471578700833363e-01,6.729416906833648682e+00,9.876914862543028084e-01,1.489790776710563092e-01
1.381237540924300447e+03,6.087001037597656428e+00,6.038149499893188832e+00,9.919744489276862698e-01,1.649464057222233826e-01,6.031822419166564586e+00,9.909350075529362867e-01,1.650325221037594603e-01,6.031569766998290838e+00,9.908935007145583951e-01,1.650359627590329004e-01,6.032738614082336248e+00,9.910854067373385812e-01,1.650200392849455466e-01,6.171644139289855779e+00,9.963468945569949886e-01,1.631501663634743471e-01
1.841650054565733853e+03,5.392922004063923858e+00,5.341531892617543242e+00,9.904708224210075906e-01,1.863159522831706882e-01,5.341544528802235625e+00,9.904731655264117363e-01,1.863157329594831157e-01,5.341376364231109619e+00,9.904419830670698754e-01,1.863186518000307101e-01,5.340734521547953584e+00,9.903227747554376181e-01,1.863297779594475512e-01,5.393943627675374053e+00,9.828683151692645392e-01,1.854106714850693449e-01
2.302062568207167260e+03,4.504742336273193537e+00,4.465147536993026911e+00,9.912104186378563053e-01,2.229681777878658455e-01,4.464859384298324407e+00,9.911464521169783826e-01,2.229753407459618697e-01,4.464917075634002863e+00,9.911592589173172652e-01,2.229739066061979802e-01,4.464810419082641424e+00,9.911353247979638459e-01,2.229765324932458936e-01,4.549084007740020752e+00,9.923550240563148161e-01,2.209010780643575755e-01
2.762475081848600894e+03,3.683635539478725907e+00,3.650254481368594650e+00,9.909380127994815712e-01,2.727065710441251012e-01,3.650536292129092697e+00,9.910145162313431788e-01,2.726960924723186297e-01,3.650484349992540345e+00,9.910004154507433549e-01,2.726980237766722381e-01,3.650561994976467606e+00,9.910211784646660860e-01,2.726950976507113156e-01,3.685534801748064027e+00,9.831888234907147917e-01,2.714009728898529317e-01
3.222887595490034073e+03,2.915561343232790481e+00,2.887238879998525132e+00,9.902857597903047537e-01,3.446611847833511710e-01,2.886971111098925125e+00,9.901939185055307346e-01,3.446770898294514440e-01,2.887078300118446350e+00,9.902306829590620252e-01,3.446707227962422793e-01,2.886876260240872849e+00,9.901609743173903633e-01,3.446826577833081995e-01,2.933092375596364487e+00,9.885909455635987220e-01,3.419590381220895536e-01
3.683300109131467707e+03,2.205961199743406986e+00,2.184859111905097961e+00,9.904340621037380776e-01,4.554957520566613738e-01,2.184999284999711300e+00,9.904976049686939898e-01,4.554812112177331063e-01,2.184985844152314449e+00,9.904915120023268793e-01,4.554826054621616827e-01,2.184826378311429895e+00,9.904187268848908543e-01,4.554990404801243509e-01,2.201291020427431189e+00,9.806017488019778128e-01,4.537974910640522053e-01
4.143712622772901341e+03,1.634115236146109540e+00,1.619370126298495638e+00,9.909767013234704880e-01,6.147253720844279012e-01,1.619254016450473177e+00,9.909056476759343646e-01,6.147473110848876710e-01,1.619254876460347825e+00,9.909061739606515040e-01,6.147471485799345103e-01,1.619273226175989455e+00,9.909167863056665970e-01,6.147434990791974530e-01,1.638733597738402326e+00,9.854594293787493076e-01,6.110884130344083065e-01
4.604125136414334520e+03,1.176264480632894127e+00,1.164437601671499456e+00,9.899453914012338318e-01,8.544444913002441355e-01,1.164473464383798396e+00,9.899758800480384924e-01,8.544314002590057688e-01,1.164523628704688063e+00,9.900185271922102848e-01,8.544130893445021080e-01,1.164437435129109577e+00,9.899444837968890409e-01,8.544442337246838104e-01,1.169003848643863863e+00,9.766164358155569047e-01,8.527808844017294998e-01
5.064537650055767699e+03,8.320223586633801460e-01,8.239721367135643959e-01,9.903245124773470964e-01,1.207733483162787502e+00,8.238800913095474243e-01,9.902138839550982397e-01,1.207800616535532168e+00,8.238896252587437630e-01,9.902253427207157177e-01,1.207793662597261619e+00,8.238263386301696301e-01,9.901483670806674464e-01,1.207839285139934882e+00,8.302142587490379810e-01,9.805466534211695340e-01,1.203198136203601276e+00
5.524950163697201788e+03,5.634743705391883628e-01,5.580111496150493844e-01,9.903044020992272101e-01,1.783348927879996326e+00,5.580899719148874061e-01,9.904442883193630420e-01,1.783223596092431196e+00,5.580707911401987520e-01,9.904102481292645921e-01,1.783254092956209069e+00,5.580322161316871865e-01,9.903407361542063692e-01,1.783314505745697831e+00,5.578972879797220452e-01,9.729558956672389458e-01,1.783530005245154593e+00
5.985362677338634967e+03,3.624422326683998108e-01,3.587353522686854701e-01,9.897724931986450203e-01,2.773242044363425141e+00,3.587361355514629979e-01,9.897746543231136229e-01,2.773239032303126184e+00,3.586883682595646827e-01,9.896428614811300095e-01,2.773422730121786639e+00,3.587363618223563533e-01,9.897740015014357962e-01,2.773236408901100347e+00,3.591640408596266654e-01,9.737940640528951475e-01,2.771594529273895269e+00
6.445775190980068146e+03,2.275193729861215985e-01,2.251310157166286074e-01,9.895026202026380169e-01,4.418421037330368506e+00,2.251746094023639455e-01,9.896942244830260194e-01,4.417995550653625259e+00,2.251753779974850767e-01,9.896976026354488143e-01,4.417988049683451379e+00,2.251632468436252088e-01,9.896428799794201314e-01,4.418103367313256591e+00,2.237909732555801168e-01,9.665787736888514781e-01,4.431540328412699736e+00
6.906187704621502235e+03,1.426120916536698646e-01,1.411584529560059309e-01,9.898070445443429843e-01,7.047947850792565028e+00,1.411568996263667941e-01,9.897961525532003035e-01,7.047986430717180006e+00,1.411213559719423360e-01,9.895469194481226749e-01,7.048869341054956550e+00,1.411584195836136646e-01,9.898050400140183669e-01,7.047942458368784635e+00,1.402691917028278112e-01,9.665381834029155295e-01,7.070103671297067294e+00
7.366600218262935414e+03,8.760410087415948510e-02,8.670631470158696175e-02,9.897517791562958633e-01,1.147378367146914258e+01,8.672089048195630312e-02,9.899181615541960966e-01,1.147282431762377719e+01,8.674013486597687006e-02,9.901378360195297601e-01,1.147155792968711019e+01,8.672857598867267370e-02,9.900038646462729908e-01,1.147230691829023819e+01,8.603484507572527196e-02,9.650793327637972041e-01,1.151815330978359420e+01
7.827012731904368593e+03,5.088065139114342911e-02,5.031473715468470082e-02,9.888776141620460036e-01,1.976374643884354754e+01,5.028389889650560635e-02,9.882715240799433420e-01,1.976977107408913881e+01,5.028885533904720734e-02,9.883689371909410992e-01,1.976880252400368221e+01,5.029766508056942448e-02,9.885393581387130757e-01,1.976705415287232270e+01,4.971791204097199268e-02,9.602256212924545897e-01,1.988099960641697450e+01
8.287425245545802682e+03,1.415493771589050771e-02,2.846208907042940481e-02,2.010753395154647016e+00,4.692959952433849935e+01,2.846185568099220478e-02,2.010736906955131076e+00,4.692985653271355062e+01,2.848483567746977127e-02,2.012360368459434667e+00,4.690456446730162554e+01,2.846490931309138619e-02,2.010945948922355786e+00,4.692644277376277273e+01,2.853273098977903571e-02,1.980835678996365479e+00,4.685193782283948138e+01
8.747837759187235861e+03,5.272748876207818819e-03,1.557119833499503656e-02,2.953146205247290546e+00,9.595111615544072947e+01,1.556609753073037901e-02,2.952178815298629022e+00,9.597460247771243758e+01,1.554951598712553569e-02,2.949034052672124595e+00,9.605103062164332073e+01,1.557357244601007516e-02,2.953581573910999403e+00,9.594006706816009000e+01,1.582615631438481427e-02,2.949520601948502296e+00,9.479164828380478980e+01
9.208250272828669040e+03,1.996240261266188191e-03,8.678856020842137461e-03,4.347600932233105731e+00,1.873519401742577202e+02,8.659986185751134685e-03,4.338148244870195569e+00,1.876836992854820210e+02,8.697117906018731262e-03,4.356749072129357359e+00,1.870319845938356877e+02,8.698292716402530877e-03,4.357304302380046401e+00,1.870111733556638853e+02,9.890641050831970940e-03,4.868831012005465197e+00,1.682527104871865902e+02
9.668662786470102219e+03,5.497183188304512278e-04,4.460456826361930936e-03,8.114077107438841807e+00,3.991876415576293198e+02,4.449276154749289176e-03,8.093738197073932383e+00,4.000804582942088814e+02,4.445827775271027349e-03,8.087465203505884048e+00,4.003566301513086501e+02,4.468487721977807553e-03,8.128560866078910152e+00,3.985481289952450084e+02,5.334314442633412284e-03,9.535675723689552186e+00,3.399029341064424443e+02
1.012907530011153540e+04,2.120510088228483693e-04,2.372067704260082382e-03,1.118630709388303401e+01,7.739582511725787981e+02,2.370785034038229086e-03,1.118025821805370512e+01,7.743426089813063982e+02,2.381466596489190124e-03,1.123063082656076794e+01,7.711534311174921186e+02,2.405579478470505975e-03,1.134397604614757249e+01,7.640477780339692799e+02,3.881407946798443812e-03,1.798713601160080344e+01,4.885843541324689454e+02
1.058948781375297040e+04,3.790207598025777472e-05,1.270416058079198258e-03,3.351837663828560920e+01,1.528680179486918860e+03,1.279787134106819728e-03,3.376562103810430671e+01,1.517808588466648416e+03,1.259757269885345213e-03,3.323715752513188448e+01,1.541236539752966564e+03,1.292797523508072872e-03,3.410728297056439118e+01,1.502966806428178643e+03,2.510974962206091732e-03,6.510171885403894976e+01,7.846592715288837780e+02
1.104990032739440358e+04,9.960992189773701434e-06,6.877658396134441040e-04,6.904591696392736822e+01,2.866451322835276187e+03,6.976947349932359835e-04,7.004269471363640776e+01,2.826233044084121047e+03,6.940233370426683980e-04,6.967411717832453633e+01,2.840972329853720566e+03,7.397960949004444122e-04,7.426328350503715114e+01,2.667527758293473198e+03,2.166357725292599682e-03,2.137177746806577261e+02,9.189830441350319461e+02
1.151031284103583675e+04,0.000000000000000000e+00,3.947540258412205296e-04,inf,5.066446113470284217e+03,4.331035286538410843e-04,inf,4.617833537898751274e+03,3.881109962007723690e-04,inf,5.153164995524596634e+03,4.606152995274030910e-04,inf,4.342018170156363340e+03,2.052452104787031665e-03,inf,9.744441759860338834e+02
1.197072535467726993e+04,0.000000000000000000e+00,2.657280366313650565e-04,inf,7.526492218713556213e+03,2.885398496242818278e-04,inf,6.931451591883313085e+03,2.707033022488758434e-04,inf,7.388162550604073658e+03,3.275611515453585409e-04,inf,6.105730153177377360e+03,1.949756726865168504e-03,inf,1.025768995917564098e+03
1.243113786831870311e+04,0.000000000000000000e+00,2.153270235861028451e-04,inf,9.288197861520431616e+03,2.865505708408507706e-04,inf,6.979570810594522300e+03,2.149574181047926992e-04,inf,9.304168321490496965e+03,3.296095764442991626e-04,inf,6.067784867100123847e+03,2.359727336425283296e-03,inf,8.475555497991437051e+02
1.289155038196013629e+04,0.000000000000000000e+00,2.157919070181638446e-04,inf,9.268188170892128255e+03,2.726341349443828221e-04,inf,7.335838560376890200e+03,2.168861870121050037e-04,inf,9.221426350624969928e+03,3.216980882522572634e-04,inf,6.217009279929927288e+03,2.227330373162182166e-03,inf,8.979359434498991277e+02
1.335196289560157129e+04,0.000000000000000000e+00,3.043415728309166175e-04,inf,6.571563593486263926e+03,3.000729997969149858e-04,inf,6.665044843599959677e+03,3.078548284776161381e-04,inf,6.496568560870950932e+03,3.806719897122927128e-04,inf,5.253866987985052219e+03,2.102583558250140875e-03,inf,9.512107103436520674e+02
1.381237540924300447e+04,0.000000000000000000e+00,2.935056344808993005e-04,inf,6.814179235561338828e+03,8.247687607661917169e-04,inf,2.424922105611814004e+03,2.930775357783127065e-04,inf,6.824132715217120676e+03,6.057672980727573427e-04,inf,3.301597835279289939e+03,2.328970310701790336e-03,inf,8.587486026807007420e+02
1.427278792288443765e+04,0.000000000000000000e+00,3.161060543517963100e-04,inf,6.326990490900841905e+03,1.151837456907637332e-03,inf,1.736356104766242652e+03,3.086023077991320454e-04,inf,6.480832934346659385e+03,4.419697810012971186e-04,inf,4.525196259954546804e+03,2.217530024915084427e-03,inf,9.019043609461773485e+02
1.473320043652587083e+04,0.000000000000000000e+00,2.241028132027485784e-04,inf,8.924475205898354034e+03,1.174093846651863603e-03,inf,1.703441343895425462e+03,2.280118467050593328e-04,inf,8.771474065499169228e+03,4.172766959516549827e-04,inf,4.792982736404040224e+03,1.675191923330049924e-03,inf,1.193893053175827390e+03
1.519361295016730401e+04,0.000000000000000000e+00,8.841557411543021772e-05,inf,2.262044916870546513e+04,5.104747230220141319e-04,inf,3.917921710520719444e+03,8.826006794393492783e-05,inf,2.266030433231086499e+04,2.338317581518367660e-04,inf,8.553158115936143076e+03,7.607625333889700414e-04,inf,2.628941242795694507e+03
1.565402546380873719e+04,0.000000000000000000e+00,6.563902021269078714e-05,inf,3.046968089284970483e+04,4.609651855132817404e-04,inf,4.338722452050284119e+03,6.563240510566233793e-05,inf,3.047275193984096404e+04,1.975860201538683222e-04,inf,1.012217361553473347e+04,6.166375200512946289e-04,inf,3.243396541672701460e+03
1.611443797745017037e+04,0.000000000000000000e+00,4.405793103095285589e-05,inf,4.539477803882578883e+04,3.301340979457260678e-04,inf,6.058144288775645691e+03,4.407998949859791592e-05,inf,4.537206162591339671e+04,1.668724601564636439e-04,inf,1.198520114178667791e+04,4.083257945672985850e-04,inf,4.898049612857284956e+03
1.657485049109160536e+04,0.000000000000000000e+00,3.147800922088999444e-05,inf,6.353641953547445155e+04,2.043731081792667223e-04,inf,9.786023307164716243e+03,3.147918305231819133e-05,inf,6.353405031750707712e+04,1.523223439938231822e-04,inf,1.313005004755639675e+04,3.470243107625245222e-04,inf,5.763284986015400136e+03
1.703526300473303854e+04,0.000000000000000000e+00,2.368634747007547503e-05,inf,8.443682600395573536e+04,1.291349232488414600e-04,inf,1.548767714947275635e+04,2.395568689905758220e-05,inf,8.348748288568924181e+04,1.474805807077927966e-04,inf,1.356110743802028628e+04,2.524062596194198704e-04,inf,7.923733757695295026e+03
1.749567551837447172e+04,0.000000000000000000e+00,2.412312893043503276e-05,inf,8.290798452255058510e+04,1.178204724697827597e-04,inf,1.697497861004535662e+04,2.418029468491808816e-05,inf,8.271197791677265195e+04,1.210976302793235744e-04,inf,1.651559981303353197e+04,2.145465885619427557e-04,inf,9.321984625369937930e+03
1.795608803201590490e+04,0.000000000000000000e+00,2.066378927641683921e-05,inf,9.678766915623549721e+04,1.244053617786751995e-04,inf,1.607647750390471992e+04,2.079016954799802269e-05,inf,9.619931166903777921e+04,1.192497104511858197e-04,inf,1.677152919225483856e+04,2.042083378152407538e-04,inf,9.793919393289010259e+03
1.841650054565733808e+04,0.000000000000000000e+00,1.783204014316197572e-05,inf,1.121576658611850871e+05,1.306222288235403539e-04,inf,1.531132961068848272e+04,1.811905966064841778e-05,inf,1.103810041722897586e+05,1.414791784952740272e-04,inf,1.413635576111864430e+04,1.598569779162062332e-04,inf,1.251118359717997009e+04
1.887691305929877126e+04,0.000000000000000000e+00,2.090164104050596806e-05,inf,9.568626674451709550e+04,6.973054409668706904e-05,inf,2.868183557017477870e+04,2.106232383622144870e-05,inf,9.495628381520493713e+04,1.354018150901869144e-04,inf,1.477085073540456324e+04,1.524216278829209725e-04,inf,1.312149743956449674e+04
1.933732557294020444e+04,0.000000000000000000e+00,2.853053149465267779e-05,inf,7.010034146664422587e+04,3.171070397911535110e-05,inf,6.307018605822181416e+04,2.856734852230147226e-05,inf,7.000999754802844836e+04,1.684704307365336717e-04,inf,1.187151947826230571e+04,1.543433813822048251e-04,inf,1.295811962968042099e+04
1.979773808658163762e+04,0.000000000000000000e+00,1.696077906672144376e-05,inf,1.179191116240749689e+05,3.192960966771352240e-05,inf,6.263778420136321074e+04,1.677232926340366316e-05,inf,1.192440220192847337e+05,2.246070636829244796e-04,inf,8.904439456202409929e+03,1.480165472457883988e-04,inf,1.351200279438288999e+04
2.025815060022307080e+04,0.000000000000000000e+00,6.223284799489192665e-06,inf,3.213736900108058471e+05,8.039395709147356683e-06,inf,2.487749169660061889e+05,5.045038733442197554e-06,inf,3.964290673810967710e+05,3.309924104542005807e-04,inf,6.042434620345290568e+03,1.302036089327884838e-04,inf,1.536055733318733473e+04
2.071856311386450761e+04,0.000000000000000000e+00,3.020343137905001640e-05,inf,6.621764179374859668e+04,4.499818169279024005e-05,inf,4.444624037598494033e+04,3.166781971231102943e-05,inf,6.315559511735156411e+04,5.377923371270298958e-04,inf,3.718907581845272034e+03,1.498423516750335693e-04,inf,1.334736126097009219e+04
