# uv,model,feather,feather_ratio,feather_ratio_err,smclean,smclean_ratio,smclean_ratio_err,int,int_ratio,int_ratio_err,joint,joint_ratio,joint_ratio_err,tp2vis,tp2vis_ratio,tp2vis_ratio_err,
0.000000000000000000e+00,5.536928772926330566e-01,1.844224035739898682e-01,3.330770741999639628e-01,2.709603840814398534e+00,5.299890041351318359e-01,9.568949894342445583e-01,1.845269891856719857e+00,2.647467255592346191e-01,4.781472480804785374e-01,2.443674515542702874e+00,1.047197580337524414e-01,1.891296824076840188e-01,3.037608777068150356e+00,3.642812416000000000e+09,1.163515044865999937e+09,5.490263486836414099e-10
1.074295865870293637e+05,4.644121341407299042e-01,4.864502996206283569e-01,1.047453896786469940e+00,2.103353680814303850e+00,4.617732167243957520e-01,9.941228313876263600e-01,2.159182730515289084e+00,4.759586788713932037e-01,1.024862711117630720e+00,2.126820582184760333e+00,5.169544368982315063e-01,1.113137230694277724e+00,2.037974452179090790e+00,2.516812340000000000e+08,9.585172140712933242e+07,7.946559878631228456e-09
2.148591731740587275e+05,2.825957173481583595e-01,2.485048314556479454e-01,8.793651715163454119e-01,3.765765267056463639e+00,1.966771456645801663e-01,6.960181075467953837e-01,4.173170728233697169e+00,2.158788703382015228e-01,7.639141610636599466e-01,4.012240642562905357e+00,4.062353149056434631e-01,1.437514052646314378e+00,2.903469655622445966e+00,3.797213880000000000e+08,2.377220545659338832e+08,5.267019614158981810e-09
3.222887597610880621e+05,1.209349088370799963e-01,1.069741860032081548e-01,8.845600251563481287e-01,8.775428647994674591e+00,1.095149002969264956e-01,9.057796347244997381e-01,8.679738752125649270e+00,1.206523757427930832e-01,9.976637589840371412e-01,8.278581397518726348e+00,8.981299344450235922e-02,7.426556509460459088e-01,9.490011422878982472e+00,1.922677800000000000e+08,2.813154765556831360e+08,1.040215889912656557e-08
4.297183463481174549e+05,1.770212458601842440e-02,2.401173972369482004e-02,1.356432647788496926e+00,4.794568983469344658e+01,5.700851251215984655e-02,3.215076330724936593e+00,2.675938517336689060e+01,3.081703564384952188e-02,1.740866498487394942e+00,4.122082885451134615e+01,6.402849056757986546e-02,3.616994686510745183e+00,2.447063436683245641e+01,2.125793721666666567e+08,2.120852535771171093e+09,9.408250572238660009e-09
5.371479329351468477e+05,5.565374772995710512e-02,4.888405869714915891e-02,8.783605900961817259e-01,1.913183438945211634e+01,6.478345324285328388e-02,1.164985683792093996e+00,1.661236486498798115e+01,5.071135682519525151e-02,9.111939248234764976e-01,1.880315925382240039e+01,4.970935959136113524e-02,8.931897961761837701e-01,1.898197624241229775e+01,1.372820515500000119e+08,4.367249753155772686e+08,1.456854684650041714e-08
6.445775195221761242e+05,7.970948331058025360e-02,7.026505935937166214e-02,8.815144251480176996e-01,1.333559659122540708e+01,8.219037629250022792e-02,1.031212480964968981e+00,1.235383598553520734e+01,7.573979554904831935e-02,9.501980492576469484e-01,1.286593295685861271e+01,7.436322783016496851e-02,9.329282381672940883e-01,1.298088405916997523e+01,1.081840050000000000e+08,2.401198265412818193e+08,1.848702124243353048e-08
7.520071061092055170e+05,8.247008190179865028e-02,8.381174613411228325e-02,1.016268496421662615e+00,1.202777250902047790e+01,8.464125116976599361e-02,1.025940883463921871e+00,1.196584820621466250e+01,8.465579509114225243e-02,1.026503104385736442e+00,1.196702770382157155e+01,8.555454326172669266e-02,1.037400973647641944e+00,1.190301718009223286e+01,8.730648495833332837e+07,1.872080586091824770e+08,2.290780574964818272e-08
8.594366926962349098e+05,6.953413438584123141e-02,6.891731937815036291e-02,9.911293206834473901e-01,1.444549656668292315e+01,6.724733087633337492e-02,9.666224113558162800e-01,1.461809636204442597e+01,6.686409662610717786e-02,9.616010498539011575e-01,1.466294676376558570e+01,7.143066617261085993e-02,1.027274831325948101e+00,1.418793906050812481e+01,4.679780694642857462e+07,1.189994856316785812e+08,4.273704533454515053e-08
9.668662792832643026e+05,4.344441548788121471e-02,4.526575295520680192e-02,1.041923396755876530e+00,2.254532975307221321e+01,4.469367342868021259e-02,1.028994258802638617e+00,2.269426270218849595e+01,4.368763576660837644e-02,1.005598424469423602e+00,2.295366597256537844e+01,4.568430081001549625e-02,1.051557497021892162e+00,2.243945703554575744e+01,5.252234053571428359e+07,2.139186974005783498e+08,3.807903413950292898e-08
1.074295865870293695e+06,1.407480479546767763e-02,1.981236568227520006e-02,1.407647634918184565e+00,5.901938615127519938e+01,2.274059677523944389e-02,1.616152496499486668e+00,5.433096513831416274e+01,2.036351281533236787e-02,1.446806056016475495e+00,5.807484623966616510e+01,2.307061412070384940e-02,1.639142741655143398e+00,5.384244028889617795e+01,2.834516421323529258e+07,3.563667949086216092e+08,7.055877270498627324e-08
1.181725452457322972e+06,1.497012832260224968e-02,1.978583389427512884e-02,1.321687661447899176e+00,5.754408373216629968e+01,2.078374326083576307e-02,1.388809170448055630e+00,5.594578147198632934e+01,1.860874069825513288e-02,1.243058195443737191e+00,5.956126749705916978e+01,2.694340953166829422e-02,1.799811528067431832e+00,4.771727948506310923e+01,2.822088592187500000e+07,3.336009077114486694e+08,7.086949731047092754e-08
1.289155039044352248e+06,2.863852933514863391e-02,2.980211394606158137e-02,1.040630040645448062e+00,3.422275813043690817e+01,3.104225302813574602e-02,1.084964257840818957e+00,3.352691382289073374e+01,2.958854682510718773e-02,1.033172705163759142e+00,3.434828145063454485e+01,3.173992197262123088e-02,1.108294409994936336e+00,3.312440045547554490e+01,1.964058483125000075e+07,1.214379385233606994e+08,1.018299614940347691e-07
1.396584625631381758e+06,3.242608674032532862e-02,3.425544563113995522e-02,1.056416270808886226e+00,2.999331192418502923e+01,3.745189262554049492e-02,1.155465319257219292e+00,2.862675369521070934e+01,3.514906465399848107e-02,1.083974916106260622e+00,2.959667805003240204e+01,3.536831225147065577e-02,1.090736373300523976e+00,2.950096217007582666e+01,1.634811231793478318e+07,8.922540583997838199e+07,1.223382832916165172e-07
1.504014212218411034e+06,2.935488407754085344e-02,3.124252472348003351e-02,1.064304142402776376e+00,3.300471158044476994e+01,3.259511191175657602e-02,1.109369296525843041e+00,3.227015421894993352e+01,3.174052548869936430e-02,1.081268977416393273e+00,3.273568364954786603e+01,3.272989173472689445e-02,1.114972610631708383e+00,3.221401662216852912e+01,1.208717483806818165e+07,7.277567521103614569e+07,1.654646368512380782e-07
1.611443798805440543e+06,2.285225980449467897e-02,2.588418738378095441e-02,1.132675175462951156e+00,4.103704958783153245e+01,2.669296573246053225e-02,1.166717612037582175e+00,4.034563981175854508e+01,2.532813697810827949e-02,1.108342771996957410e+00,4.151065855734427856e+01,2.767545933602377772e-02,1.211060069016913987e+00,3.958223395039791370e+01,1.167261862500000000e+07,9.025577400982306898e+07,1.713411583409750348e-07
1.718873385392469820e+06,1.357570734641437050e-02,2.119107397932869577e-02,1.560955421223462425e+00,5.752617653216864824e+01,2.327508939682350689e-02,1.714713129738649089e+00,5.427579179656380148e+01,2.061056199697001642e-02,1.518194335738513034e+00,5.850302002570026616e+01,2.408486563945189118e-02,1.774114970577441719e+00,5.310593656529297846e+01,8.714713140625000000e+06,1.135771549534261227e+08,2.294969397858378847e-07
1.826302971979499096e+06,6.585127989167411690e-03,1.490632527515870290e-02,2.263634860200094412e+00,9.306024936525911073e+01,1.778508377951923056e-02,2.703890273742942441e+00,8.209279296299108353e+01,1.488768988778686221e-02,2.260804939900519894e+00,9.314101257974633086e+01,1.801382612180093407e-02,2.735531663383585332e+00,8.130426972536311325e+01,5.891690960129310377e+06,1.584567997981074154e+08,3.394611175809648892e-07
1.933732558566528605e+06,1.084025954090369302e-02,1.637223693784714204e-02,1.510317799686397455e+00,7.349564570680684028e+01,1.908967326356408520e-02,1.759995647783106687e+00,6.680895783580439229e+01,1.650551629718393157e-02,1.522612649162453202e+00,7.313743855145513351e+01,1.984113501190828618e-02,1.830319185351740874e+00,6.518608522038964281e+01,3.818918919270833489e+06,6.228612463819690794e+07,5.237084202619056661e-07
2.041162145153557882e+06,1.652891139189402100e-02,1.930659249580154654e-02,1.168049851442106046e+00,5.581057284049290246e+01,1.960523882298730383e-02,1.187518858901291496e+00,5.537918602778265154e+01,1.921354916800434298e-02,1.162420725264877497e+00,5.595585666656428003e+01,1.998788232061391237e-02,1.209267921323373685e+00,5.476932108951692868e+01,2.914928472526041791e+06,3.123446378012197465e+07,6.861231785009576184e-07
2.148591731740587391e+06,1.770052682578323461e-02,2.117173650654994091e-02,1.196107704303490893e+00,5.145056728241598165e+01,2.127816642995082608e-02,1.202776982837637121e+00,5.132280365572826497e+01,2.149424038173991178e-02,1.214327719920212489e+00,5.102721976662525094e+01,2.131360705431190397e-02,1.204122750926583940e+00,5.126347303125425015e+01,1.894920176537298365e+06,1.894870789986851439e+07,1.055453420197802426e-06
2.256021318327616435e+06,1.647657146289323651e-02,2.033282545906129474e-02,1.234044686107950151e+00,5.433395185040707531e+01,2.162956199107510594e-02,1.311572038038608445e+00,5.246467508565079640e+01,2.050066623552184927e-02,1.244231318493125071e+00,5.408732843464193252e+01,2.162095032852246607e-02,1.312223867520912801e+00,5.249685296986032057e+01,1.620429042426215252e+06,1.738249913896147162e+07,1.234241011041862467e-06
2.363450904914645944e+06,1.385541249628123930e-02,1.620219007493099370e-02,1.169376233243118790e+00,6.653890626378520778e+01,1.798151543720022741e-02,1.295769827906890992e+00,6.277738551869694561e+01,1.604623887610881830e-02,1.158120617514317274e+00,6.688593800697967140e+01,1.768461902033510377e-02,1.276369002011424447e+00,6.341147753597941517e+01,1.596491151079963194e+06,2.035194229426326975e+07,1.252747302271353726e-06
2.470880491501675453e+06,1.014278025832027197e-02,1.573622269456141642e-02,1.551470335922219945e+00,7.728273008204496364e+01,1.716906096636583792e-02,1.692623522274060655e+00,7.322648528495636810e+01,1.548263525557039104e-02,1.526468567912605323e+00,7.804751493359661652e+01,1.771319915174639562e-02,1.746384985242679821e+00,7.179787041618915566e+01,1.573683348772321362e+06,2.744536131685746834e+07,1.270903697792125038e-06
2.578310078088704497e+06,5.778861770522780716e-03,1.139869779504614974e-02,1.972481476056308969e+00,1.164309745144963983e+02,1.289587749143768225e-02,2.237193860306872839e+00,1.071800629205462059e+02,1.138245050893410201e-02,1.969669973245336214e+00,1.165412042757429276e+02,1.314285085735671099e-02,2.274297496506436200e+00,1.056986774576194819e+02,1.495604854363692459e+06,4.589943715923844278e+07,1.337251605232701324e-06
2.685739664675734006e+06,3.691953926352739730e-03,1.097860179323193082e-02,2.973656229799603423e+00,1.363274873991358618e+02,1.197647038290077480e-02,3.240151489185025380e+00,1.276101130327005535e+02,1.106691955577670736e-02,2.997577915797463355e+00,1.355116975846204639e+02,1.192768914708202364e-02,3.230725351674505141e+00,1.280438989928980220e+02,1.693826279622395756e+06,8.106681513878229260e+07,1.180758628967226968e-06
2.793169251262763515e+06,4.715057985859774821e-03,1.212314554537773439e-02,2.571155133560275807e+00,1.187775166329167149e+02,1.314607619199457261e-02,2.792225180722601063e+00,1.120186081760940340e+02,1.204688944033643384e-02,2.554982245491881354e+00,1.193178781168543594e+02,1.332731071306625381e-02,2.826542272233808717e+00,1.108501900927814461e+02,1.853860862681995844e+06,6.965771181675906479e+07,1.078829611855199084e-06
2.900598837849793024e+06,5.515926405389952498e-03,1.098977708649571776e-02,1.992371956913153719e+00,1.211702367598700079e+02,1.242652080566962990e-02,2.256308360728365159e+00,1.115201571503648381e+02,1.106623332896383358e-02,2.006232954477118025e+00,1.206115507292175408e+02,1.223644558425492947e-02,2.218384489738286280e+00,1.126610010857488646e+02,1.989933699980945094e+06,6.391830978466909379e+07,1.005058607974644818e-06
3.008028424436822068e+06,5.452297794233475041e-03,1.016226867588037285e-02,1.863850629477413090e+00,1.280855285881925454e+02,1.183700301252039490e-02,2.167154219556755024e+00,1.156135785959022968e+02,1.017173619419779740e-02,1.865587056700342306e+00,1.280079140560554833e+02,1.258862455419841250e-02,2.308865918422971397e+00,1.108590770124255585e+02,1.981348304687500000e+06,6.417216052422292531e+07,1.009413635025680809e-06
3.115458011023851577e+06,5.175621870269726983e-03,9.815065542473652357e-03,1.896403135409531426e+00,1.334161633108183480e+02,1.089341227088880260e-02,2.097606136651974040e+00,1.243265276676050348e+02,9.768173655174905434e-03,1.887342989889993383e+00,1.338348076694854853e+02,1.111516048088863860e-02,2.147599024715724170e+00,1.227688122576745826e+02,1.926469577392578125e+06,6.562358221679142863e+07,1.038168480872386844e-06
3.222887597610881086e+06,4.239451051305761706e-03,9.882850348924663783e-03,2.331162744733358938e+00,1.416199770362759125e+02,1.092046671088765103e-02,2.574637196395661132e+00,1.319085254259939859e+02,9.879941497855086741e-03,2.330476606119096239e+00,1.416491533213208243e+02,1.109115336990687366e-02,2.616176772813727958e+00,1.304580005490613246e+02,2.111399727642951999e+06,8.806089095310010016e+07,9.472389191860515809e-07
3.330317184197910130e+06,3.073385565935146061e-03,9.221830539900111035e-03,3.000544624831074092e+00,1.626648920022486209e+02,1.031623881177578216e-02,3.367837990869450238e+00,1.494835072189789003e+02,9.225314607297500566e-03,3.001678250054022445e+00,1.626188110799607216e+02,1.034991203610283877e-02,3.367593103455487125e+00,1.489946851581649412e+02,2.071434239633413497e+06,1.196296216210495681e+08,9.655145979417697915e-07
3.437746770784939639e+06,2.205097434634808659e-03,8.641353029524907747e-03,3.918807801323310969e+00,1.843921204092219739e+02,9.816418859409169195e-03,4.456641230246774832e+00,1.664022476340857111e+02,8.656596812361385535e-03,3.925720776050435568e+00,1.841333363395955303e+02,9.871068219072185942e-03,4.476477122520872598e+00,1.656154823767314213e+02,1.765904452851562528e+06,1.418272128157789409e+08,1.132564105762223231e-06
3.545176357371969149e+06,1.979780744407505250e-03,8.078706187706511527e-03,4.080606506820152468e+00,1.988370630193437307e+02,1.029404063816540503e-02,5.200467422380357974e+00,1.629528900798156315e+02,8.030126710274579013e-03,4.056068700010403205e+00,1.998020470273688716e+02,1.083242547890852017e-02,5.471527849489399742e+00,1.561011402049041124e+02,1.405158621394230751e+06,1.255797540121025890e+08,1.423326852023407957e-06
3.652605943958998192e+06,1.910013016433303838e-03,8.016672639458096578e-03,4.197182202678477303e+00,2.014771162631726327e+02,9.442459491669739913e-03,4.963273023487655422e+00,1.762902678147922586e+02,8.027209859025325259e-03,4.202699033965263453e+00,2.012634742186654364e+02,9.509481025528848316e-03,4.978751947610568607e+00,1.751391079719282118e+02,1.392101005413925508e+06,1.294468708300981969e+08,1.436677359967923051e-06
3.760035530546027701e+06,1.910594445199911709e-03,7.407810594136558444e-03,3.877228164641426833e+00,2.146290048090046128e+02,8.390617634666761374e-03,4.394616080089051025e+00,1.941764080488233901e+02,7.296556650824361466e-03,3.818998149584224677e+00,2.172224588411085051e+02,8.471034511155895938e-03,4.433716706566444898e+00,1.926479946844532947e+02,1.570026264263446443e+06,1.454694180669929087e+08,1.273864038514086302e-06
3.867465117133057211e+06,1.760380509322517295e-03,7.295999218858296997e-03,4.144558054477758269e+00,2.208387965200468557e+02,7.359596811825056331e-03,4.156568636609064171e+00,2.190534646519448359e+02,7.302123800588466822e-03,4.148037178279535553e+00,2.206895502176753894e+02,7.600002834116257634e-03,4.317250045583111095e+00,2.136664628593350983e+02,1.536180022671403596e+06,1.534831912825232446e+08,1.301930742607123680e-06
3.974894703720086254e+06,1.541106481837280348e-03,6.871757586563226848e-03,4.458976500034466994e+00,2.377311678566380806e+02,7.473074900509233710e-03,4.823070034540354101e+00,2.216675980591052735e+02,6.886724427443512327e-03,4.468688250037907039e+00,2.373089851384636404e+02,7.695594594304310671e-03,4.993551506661471073e+00,2.165275224902538014e+02,1.297778866365131689e+06,1.481708269455370307e+08,1.541094595887384680e-06
4.082324290307115763e+06,1.255787657555629266e-03,6.433310142710979562e-03,5.122928310374793348e+00,2.601085396430583501e+02,7.286007002448968706e-03,5.798382788920928732e+00,2.341217057782468203e+02,6.438853502686470165e-03,5.127342559823844681e+00,2.599211527022104065e+02,7.689507800478168065e-03,6.123254798861196946e+00,2.235812119770503443e+02,1.125493358734130859e+06,1.584521034643428028e+08,1.776998488926265162e-06
4.189753876894145273e+06,1.063842818116574008e-03,5.876501343898839214e-03,5.523843601541241100e+00,2.881701473748267404e+02,6.454690042441905799e-03,6.027591141488566784e+00,2.657613999395478572e+02,5.841305381240559716e-03,5.490759801886898828e+00,2.896389682391174460e+02,6.468873275626983894e-03,6.080666396826806874e+00,2.655084799573341456e+02,1.209579304403981892e+06,1.998207180908093750e+08,1.653467441901106978e-06
4.297183463481174782e+06,8.805067369332576646e-04,5.937325353566478420e-03,6.743077712551933445e+00,2.933483801671922606e+02,6.229362029027809243e-03,6.495984446637860010e+00,2.782292108794561614e+02,5.854276240008125624e-03,6.648758032673494967e+00,2.969657681394663769e+02,6.423424661279876838e-03,7.295145388270632303e+00,2.738251348430365510e+02,1.080592049755031709e+06,1.993429803215343952e+08,1.850837231940143662e-06
4.404613050068204291e+06,5.815285581668242767e-04,5.259813251969343295e-03,9.044806446909610997e+00,3.423870858797386632e+02,5.267917758400846029e-03,8.708125493652170590e+00,3.405495469331911522e+02,5.272530619228799412e-03,9.066675308001396871e+00,3.416432836419955379e+02,5.601037988954511715e-03,9.631578553271550547e+00,3.234902503283558985e+02,1.056969928351907060e+06,3.090908139562279582e+08,1.892201419555852483e-06
4.512042636655232869e+06,5.089884301317700857e-04,5.333311262141002783e-03,1.047825637364739748e+01,3.423309493426482391e+02,5.180470096203145663e-03,9.750063213068463241e+00,3.501525052140984826e+02,5.332923632522579283e-03,1.047749480502328723e+01,3.423536641000504801e+02,5.140036415082939111e-03,1.009853291508464146e+01,3.540434065702863222e+02,1.045477350955847534e+06,3.480892914644213319e+08,1.913001747149311820e-06
4.619472223242262378e+06,4.293572460483119357e-04,4.667873655812905184e-03,1.087177099903344590e+01,3.923699040727612442e+02,4.564440255307999905e-03,1.009197451635313314e+01,3.986665068503248222e+02,4.656155914542776074e-03,1.084447964345955917e+01,3.932739798017827866e+02,4.749325433395925472e-03,1.106147730615340308e+01,3.861985998753325475e+02,8.578555502794054337e+05,3.355371085106215477e+08,2.331394834822882270e-06
4.726901809829291888e+06,3.533328027001318792e-04,4.711892546713014780e-03,1.333556497077324998e+01,3.948491650488400637e+02,4.612470003084508802e-03,1.262455815702501205e+01,4.017817454820561807e+02,4.672787939299545557e-03,1.322489138735660852e+01,3.979212005966028869e+02,4.728029646566542406e-03,1.338123607668305759e+01,3.935952256837402956e+02,9.002896936565897195e+05,4.359158746588212848e+08,2.221507158507187400e-06
4.834331396416321397e+06,2.805252698796239673e-04,4.328793784867122733e-03,1.543102974902991420e+01,4.339035714918388180e+02,4.151233624297138991e-03,1.434050977968138518e+01,4.503784670573664357e+02,4.345648396552218712e-03,1.549111207848397420e+01,4.323227237473329296e+02,4.183685822200085280e-03,1.491375740943175643e+01,4.480074886127919740e+02,7.999222819680606481e+05,4.888470320750683546e+08,2.500242891541425636e-06
4.941760983003350906e+06,2.030789011302191734e-04,3.403584715129368780e-03,1.675991300025258113e+01,5.545291196505227163e+02,3.543242896616779786e-03,1.684498679334502924e+01,5.328236760267412819e+02,3.404871437531845676e-03,1.676624907157912148e+01,5.543313549990988349e+02,3.650086717931805454e-03,1.797373679696681137e+01,5.190537334044986437e+02,5.770592147497228580e+05,4.853196816390186548e+08,3.465848821317933275e-06
5.049190569590380415e+06,1.196054777272814306e-04,3.576323323551611460e-03,2.990099944842132729e+01,5.411359654190159745e+02,3.265470450925981802e-03,2.592148491034163982e+01,5.897189767106630143e+02,3.569317035751189138e-03,2.984242112965571181e+01,5.421637328223789609e+02,3.408547217039908234e-03,2.849825343962850255e+01,5.668688894804120082e+02,6.599179122832834255e+05,9.267056456175969839e+08,3.030679971541168428e-06
5.156620156177408993e+06,1.126642215613407166e-04,3.328809399112614333e-03,2.954628677126414971e+01,5.811463984455396030e+02,3.150597114887577956e-03,2.642520692322563747e+01,6.116537017256969193e+02,3.327008570732477126e-03,2.953030274052945359e+01,5.814506555625770261e+02,3.324505839583043014e-03,2.950808866835329525e+01,5.818740313751344502e+02,5.615176257386818761e+05,8.331567031374708414e+08,3.561775994020349426e-06
5.264049742764438502e+06,6.712419604139683714e-05,3.217179530733310731e-03,4.792876072212785488e+01,6.089570777803991177e+02,2.602821390047737552e-03,3.682443022515155917e+01,7.480821113330474645e+02,3.192066491967699565e-03,4.755463275864173056e+01,6.136492741459434228e+02,2.728679472535364484e-03,4.065120528002351108e+01,7.153578137402348602e+02,6.162839910310443956e+05,1.542447280011273861e+09,3.245257103668415732e-06
5.371479329351468012e+06,6.050755375023678806e-05,2.691267579718571983e-03,4.447820830482739751e+01,7.268035733279040187e+02,2.399248536502931149e-03,3.624655857695043437e+01,8.112139006759203994e+02,2.685212565925861918e-03,4.437813792654530687e+01,7.284063607458766683e+02,2.560736412089595175e-03,4.232093769085110324e+01,7.629965108414512542e+02,5.083752611897786264e+05,1.358669176087395191e+09,3.934101740235907267e-06
5.478908915938497521e+06,3.815722308821551084e-05,3.033693353054444253e-03,7.950508730786992828e+01,6.510733352503790456e+02,2.322519221796724535e-03,5.394677681954933490e+01,8.454617392370198559e+02,3.019023706274535403e-03,7.912063462518926826e+01,6.541974604090203229e+02,2.508663352205918028e-03,6.574543819413038648e+01,7.852928547072929177e+02,4.868152632499035681e+05,2.000359923560384750e+09,4.108334620552849007e-06
5.586338502525527030e+06,2.033382479100673292e-05,2.634891881499266258e-03,1.295817146346529682e+02,7.532316349837858525e+02,1.999340273729243323e-03,8.891529561575785578e+01,9.892047238779585996e+02,2.578274233457751585e-03,1.267973074400677405e+02,7.696428069063368866e+02,2.313458989822090618e-03,1.137739217092737931e+02,8.569741013327978862e+02,4.330377928498096881e+05,3.406852544883377075e+09,4.618534531903562996e-06
5.693768089112556539e+06,1.943548961715477538e-05,2.386939227996430577e-03,1.228134343417617629e+02,8.311257533421106700e+02,1.909138011860493384e-03,8.664152362979734789e+01,1.035640039954866324e+03,2.382595154707560937e-03,1.225899219232716604e+02,8.326288445675767207e+02,2.129131219611059191e-03,1.095486278736079271e+02,9.308531084512703728e+02,3.861876028626907500e+05,3.100450902023561478e+09,5.178830146437885706e-06
5.801197675699586049e+06,4.185208811656066042e-06,2.536917002959662541e-03,6.061625876095337162e+02,7.870600366782829269e+02,1.732627845931234822e-03,3.510269525673005546e+02,1.151036918588037224e+03,2.495772507874206066e-03,5.963316575563267179e+02,8.000135308893763977e+02,1.993564220300205782e-03,4.763356644829777338e+02,1.001126553137917085e+03,3.990456564007041161e+05,1.430195923009372520e+10,5.011957824612804557e-06
5.908627262286614627e+06,3.661974450880463336e-06,2.231857935375375530e-03,6.094684617034291705e+02,8.946464718157841389e+02,1.591131892440744103e-03,3.339851366880276373e+02,1.253214516862953360e+03,2.233263914565619939e-03,6.098524018999278269e+02,8.940841580045959063e+02,1.739870673887669323e-03,4.751181902619077846e+02,1.147096386124942001e+03,4.209662334425905719e+05,1.563169219061334801e+10,4.750974878962867718e-06
6.016056848873644136e+06,4.451287041288302438e-07,1.843163203121485219e-03,4.140742185406295903e+03,1.084829117700678125e+03,1.292684182037065000e-03,1.891828904976084686e+03,1.546350924874484463e+03,1.821444013584432161e-03,4.091949129969531896e+03,1.097761633008968602e+03,1.552864112623907750e-03,3.488573300755896071e+03,1.287573618174095827e+03,3.612989320976789459e+05,9.353924796318572998e+10,5.535582373256248113e-06
6.123486435460673645e+06,0.000000000000000000e+00,1.372388547072963096e-03,inf,1.457313239946230624e+03,1.074360979845955140e-03,inf,1.861571704034490949e+03,1.350611877852417103e-03,inf,1.480810314788703636e+03,1.318425441624842404e-03,inf,1.516961017936044527e+03,2.257426342990451376e+05,inf,8.859646766372743918e-06
6.230916022047703154e+06,0.000000000000000000e+00,1.326637782317897831e-03,inf,1.507570511451592665e+03,9.283751517434391583e-04,inf,2.154301519427901894e+03,1.323213533731297390e-03,inf,1.511471844124998597e+03,1.142057603779044264e-03,inf,1.751225151325154457e+03,2.127814263339199824e+05,inf,9.399316634250681876e-06
6.338345608634732664e+06,0.000000000000000000e+00,1.092550691935131229e-03,inf,1.830578676818729718e+03,7.696415265914054085e-04,inf,2.598612381088135862e+03,1.048114825330824030e-03,inf,1.908187873755841110e+03,1.033701739011714605e-03,inf,1.934794075041538235e+03,1.721160130097762449e+05,inf,1.162006930689475920e-05
6.445775195221762173e+06,0.000000000000000000e+00,1.202105062066966988e-03,inf,1.663748089173742983e+03,8.165601932107945061e-04,inf,2.449298920800687483e+03,1.200377076248533180e-03,inf,1.666143114170824219e+03,1.042947970355661289e-03,inf,1.917641202482966946e+03,1.874022440294538101e+05,inf,1.067223079615664644e-05
6.553204781808790751e+06,0.000000000000000000e+00,1.619150322476718695e-03,inf,1.235215762388706480e+03,8.718851318711309632e-04,inf,2.293880153349845386e+03,1.596428745119972230e-03,inf,1.252796284277441600e+03,1.118360870491086866e-03,inf,1.788331524082896294e+03,2.638455706283726613e+05,inf,7.580191682721126552e-06
6.660634368395820260e+06,0.000000000000000000e+00,1.238357855898505758e-03,inf,1.615042041743963864e+03,6.877550924344883040e-04,inf,2.908011910054317468e+03,1.226443723077622755e-03,inf,1.630731163906342772e+03,9.046602655723049802e-04,inf,2.210774669908556916e+03,2.271560354551977071e+05,inf,8.804520628264189593e-06
6.768063954982849769e+06,0.000000000000000000e+00,9.576943167121499236e-04,inf,2.088349032775070100e+03,6.024511590112524573e-04,inf,3.319771188227798575e+03,9.454473852110823005e-04,inf,2.115400636021090122e+03,8.210939209857315334e-04,inf,2.435774944721280917e+03,1.515544873347473040e+05,inf,1.319657395285487346e-05
6.875493541569879279e+06,0.000000000000000000e+00,1.254559496139580083e-03,inf,1.594185055514882833e+03,6.628851512227670493e-04,inf,3.017113894180270108e+03,1.210172577378488363e-03,inf,1.652656850258877284e+03,9.108186753757163776e-04,inf,2.195826737056079764e+03,2.112144651759825938e+05,inf,9.469048430625299223e-06
6.982923128156908788e+06,0.000000000000000000e+00,1.017020390573061730e-03,inf,1.966528909880614719e+03,5.130393877582011637e-04,inf,3.898336166233328640e+03,1.011851734414516641e-03,inf,1.976574167911320728e+03,7.414362292668860146e-04,inf,2.697467322277400854e+03,1.627747500180844800e+05,inf,1.228691796349125040e-05
7.090352714743938297e+06,0.000000000000000000e+00,8.340743810094864092e-04,inf,2.397867678874617013e+03,4.516298933651796796e-04,inf,4.428404827452013706e+03,7.896615127265249612e-04,inf,2.532730755858223802e+03,6.718194530822074262e-04,inf,2.976990307178957664e+03,1.480675377648925642e+05,inf,1.350734962025017483e-05
7.197782301330967806e+06,0.000000000000000000e+00,8.236316068804335096e-04,inf,2.428270094654514196e+03,4.382882716183886989e-04,inf,4.563206751152518336e+03,8.186203615552139828e-04,inf,2.443134930336208981e+03,6.097046540282531884e-04,inf,3.280276748399761800e+03,1.466542001872512628e+05,inf,1.363752280839114459e-05
7.305211887917996384e+06,0.000000000000000000e+00,9.366264563640172959e-04,inf,2.135322984323971923e+03,4.728443641397461761e-04,inf,4.229721556771928590e+03,9.007554611875157394e-04,inf,2.220358450409270063e+03,7.054697645348301021e-04,inf,2.834990385900878664e+03,1.609676324581720110e+05,inf,1.242485814978801249e-05
7.412641474505025893e+06,0.000000000000000000e+00,6.547658917165441071e-04,inf,3.054526855021067149e+03,3.693185618046229950e-04,inf,5.415379043574962452e+03,6.275305426802682942e-04,inf,3.187095868605419582e+03,5.662585502057901473e-04,inf,3.531955498549484673e+03,1.329973959197998047e+05,inf,1.503788842005629590e-05
7.520071061092055403e+06,0.000000000000000000e+00,5.745462121922173537e-04,inf,3.481008067860849224e+03,3.361291976976384858e-04,inf,5.950093040709540219e+03,5.624753746522921519e-04,inf,3.555711218889091469e+03,5.121666351531725583e-04,inf,3.904979088303681237e+03,1.171788181762695312e+05,inf,1.706793114256745383e-05
7.627500647679084912e+06,0.000000000000000000e+00,5.197143184835954039e-04,inf,3.848268036631223367e+03,2.954968377010704756e-04,inf,6.768261939991497457e+03,4.772618216622640354e-04,inf,4.190571944418606108e+03,5.049944173100743379e-04,inf,3.960439821598996332e+03,1.000958897841979342e+05,inf,1.998084041524488818e-05
7.734930234266114421e+06,0.000000000000000000e+00,3.723217314548795233e-04,inf,5.371698268013597044e+03,2.361967476768237872e-04,inf,8.467517100347631640e+03,3.705556514612832531e-04,inf,5.397299952417446548e+03,3.928824082019370385e-04,inf,5.090581706503954592e+03,8.225566931203207059e+04,inf,2.431443348194173577e-05
7.842359820853143930e+06,0.000000000000000000e+00,3.808392448969118355e-04,inf,5.251559619443562042e+03,2.181536475969268860e-04,inf,9.167850375324982451e+03,3.448108377381623423e-04,inf,5.800281722927549708e+03,4.265429350527546494e-04,inf,4.688859750432018700e+03,8.326486499286520120e+04,inf,2.401973509680675062e-05
7.949789407440172508e+06,0.000000000000000000e+00,3.425630487715258191e-04,inf,5.838341313145861932e+03,2.059807836248778808e-04,inf,9.709643612397854668e+03,3.286528091587899631e-04,inf,6.085449277367021750e+03,3.831146208508941784e-04,inf,5.220369808800347528e+03,8.023162118425039807e+04,inf,2.492782733888721902e-05
8.057218994027202018e+06,0.000000000000000000e+00,4.165456088672084864e-04,inf,4.801394991148698864e+03,2.266675997193602762e-04,inf,8.823493090658845176e+03,3.951536568533696317e-04,inf,5.061322261132821950e+03,4.101997274081425437e-04,inf,4.875673644731679815e+03,8.954078848959016614e+04,inf,2.233618928017945556e-05
8.164648580614231527e+06,0.000000000000000000e+00,5.643536139928074114e-04,inf,3.543877367684385263e+03,2.718118678671999295e-04,inf,7.358030448387731667e+03,5.446869398686734033e-04,inf,3.671833953797771301e+03,4.534066179076035041e-04,inf,4.411051627851549711e+03,1.051422104080200224e+05,inf,1.902185613407499995e-05
8.272078167201261036e+06,0.000000000000000000e+00,4.019273877830645595e-04,inf,4.976023184265999589e+03,2.116611927234654197e-04,inf,9.449063261270537623e+03,3.986072490497169800e-04,inf,5.017470216028475988e+03,3.707740095617942659e-04,inf,5.394121347296523709e+03,8.307070200815508724e+04,inf,2.407587695362992136e-05
8.379507753788290545e+06,0.000000000000000000e+00,3.428878761523639291e-04,inf,5.832810487330529213e+03,1.848193870240980388e-04,inf,1.082137557213749460e+04,3.050926276435867606e-04,inf,6.555386196799308891e+03,3.722420691426558525e-04,inf,5.372847847655639271e+03,7.413663733179429255e+04,inf,2.697721493691592785e-05
8.486937340375319123e+06,0.000000000000000000e+00,2.762489111242141500e-04,inf,7.239847541338212068e+03,1.695117465973702820e-04,inf,1.179859236982829316e+04,2.722963436979391376e-04,inf,7.344938873724351652e+03,3.200735861938600372e-04,inf,6.248563100076159571e+03,7.074616684402957617e+04,inf,2.827008287826104932e-05
8.594366926962349564e+06,0.000000000000000000e+00,2.916866400412870450e-04,inf,6.856673311183906662e+03,1.633556008663652733e-04,inf,1.224322881733403483e+04,2.640517882075353292e-04,inf,7.574271750161642558e+03,3.345957156258149313e-04,inf,5.977362848951239357e+03,6.687028582153320895e+04,inf,2.990865038827112134e-05
8.701796513549378142e+06,0.000000000000000000e+00,2.759484694561251594e-04,inf,7.247729998074850300e+03,1.613866650382078693e-04,inf,1.239259761348005668e+04,2.528744895689669548e-04,inf,7.909061935860224366e+03,3.297265873115975423e-04,inf,6.065631577686406672e+03,6.696131614379883104e+04,inf,2.986799118023633059e-05
8.809226100136408582e+06,0.000000000000000000e+00,2.550477409092526235e-04,inf,7.841669143470715426e+03,1.547772577318191076e-04,inf,1.292179503183457746e+04,2.429382810403884682e-04,inf,8.232543637976512400e+03,3.043559406480925351e-04,inf,6.571253367820650055e+03,6.413612578161439160e+04,inf,3.118367340755918987e-05
8.916655686723437160e+06,0.000000000000000000e+00,2.718138422901502597e-04,inf,7.357977000542456153e+03,1.515668850461657821e-04,inf,1.319549451313734971e+04,2.376951590757392146e-04,inf,8.414138545256279031e+03,3.240246473491684783e-04,inf,6.172369961241877718e+03,6.550712605261424324e+04,inf,3.053102953094954741e-05
9.024085273310465738e+06,0.000000000000000000e+00,2.292830266069087540e-04,inf,8.722843681878264761e+03,1.442109730242891830e-04,inf,1.386857017921336592e+04,2.279471095212713021e-04,inf,8.773965172010071910e+03,2.796142716659287086e-04,inf,7.152710725686832120e+03,6.174828781833933317e+04,inf,3.238956205367036746e-05
9.131514859897496179e+06,0.000000000000000000e+00,2.527370044453476302e-04,inf,7.913364346424720679e+03,1.413776765059786896e-04,inf,1.414650494638326018e+04,2.226907341026122735e-04,inf,8.981065189171420570e+03,3.021352715793671016e-04,inf,6.619551532481785216e+03,6.091862478905002354e+04,inf,3.283068202746913079e-05
9.238944446484524757e+06,0.000000000000000000e+00,2.318709856882271534e-04,inf,8.625486255055613583e+03,1.419315064682076034e-04,inf,1.409130396602953260e+04,2.194226811144182985e-04,inf,9.114828010679064391e+03,2.858872461669146746e-04,inf,6.995765032597166282e+03,6.076077318191528320e+04,inf,3.291597350172094610e-05
9.346374033071555197e+06,0.000000000000000000e+00,2.301796954086150033e-04,inf,8.688863700378089561e+03,1.347448113220424089e-04,inf,1.484287209560868178e+04,2.105290526910523572e-04,inf,9.499876498921810708e+03,2.784463574377459157e-04,inf,7.182712025411045943e+03,5.835775542660035717e+04,inf,3.427136608287660943e-05
9.453803619658583775e+06,0.000000000000000000e+00,2.407881718452782951e-04,inf,8.306055836019748313e+03,1.372581900079954955e-04,inf,1.457107950996218824e+04,2.130078597988254276e-04,inf,9.389324891057511195e+03,2.956515348642401028e-04,inf,6.764720504219190843e+03,6.105488269147800020e+04,inf,3.275741286911289929e-05
9.561233206245614216e+06,0.000000000000000000e+00,2.059422415747273185e-04,inf,9.711460770297037016e+03,1.274821152628646793e-04,inf,1.568847517062337647e+04,2.025394577992756272e-04,inf,9.874619107463380715e+03,2.514428428700436128e-04,inf,7.954093968917163693e+03,5.495246690124511952e+04,inf,3.639509038955781066e-05
9.668662792832642794e+06,0.000000000000000000e+00,2.348016182425097893e-04,inf,8.517828858974657123e+03,1.310952856361223844e-04,inf,1.525607873918018413e+04,2.032334050909824160e-04,inf,9.840901888666634477e+03,2.845053965008934255e-04,inf,7.029743634383818971e+03,5.750318662538390345e+04,inf,3.478068116519181984e-05
9.776092379419671372e+06,0.000000000000000000e+00,2.039656028216541017e-04,inf,9.805574922104802681e+03,1.282531435751681865e-04,inf,1.559415967709060715e+04,1.999476829384308116e-04,inf,1.000261653752623351e+04,2.521213762152443492e-04,inf,7.932687144673262083e+03,5.565840444331699109e+04,inf,3.593347707329299642e-05
9.883521966006701812e+06,0.000000000000000000e+00,2.202276033656368084e-04,inf,9.081513713244494284e+03,1.248828378877455021e-04,inf,1.601501081996356515e+04,1.953443790445566388e-04,inf,1.023832889270806481e+04,2.668384803090985196e-04,inf,7.495170852731786908e+03,5.526224871973498375e+04,inf,3.619107159650869634e-05
9.990951552593730390e+06,0.000000000000000000e+00,2.150166586864244171e-04,inf,9.301604872005551442e+03,1.258366010263247846e-04,inf,1.589362700270014284e+04,1.964269601779188425e-04,inf,1.018190170121478150e+04,2.635903824408278827e-04,inf,7.587530248562730776e+03,5.479448796123347711e+04,inf,3.650002170683625880e-05
1.009838113918076083e+07,0.000000000000000000e+00,1.975682524198119571e-04,inf,1.012308392418336734e+04,1.199098999637876223e-04,inf,1.667918996349753434e+04,1.867480211920361714e-04,inf,1.070961816480703601e+04,2.430512244014506153e-04,inf,8.228718061080720872e+03,5.208995617274234246e+04,inf,3.839511773378225787e-05
1.020581072576778941e+07,0.000000000000000000e+00,2.178753256508759453e-04,inf,9.179561724234921712e+03,1.215895496494371887e-04,inf,1.644878203567930905e+04,1.892671136962737117e-04,inf,1.056707613351941836e+04,2.642873241648916924e-04,inf,7.567521470504497302e+03,5.420280407209724945e+04,inf,3.689846003796635088e-05
1.031324031235481799e+07,0.000000000000000000e+00,1.702129210639297054e-04,inf,1.174998929281535857e+04,1.095103522579064922e-04,inf,1.826311356655875352e+04,1.697246762211225579e-04,inf,1.178379033932778293e+04,2.070877133122942459e-04,inf,9.657743417080193467e+03,4.022736554905259254e+04,inf,4.971739940467224364e-05
1.042066989894184843e+07,0.000000000000000000e+00,1.403434911876502266e-04,inf,1.425074994982021235e+04,8.813898166363287102e-05,inf,2.269143530194906270e+04,1.397656133503915005e-04,inf,1.430967139954527192e+04,1.563967800902901328e-04,inf,1.278798705987022913e+04,2.361982198339843671e+04,inf,8.467464324691910470e-05
1.052809948552887700e+07,0.000000000000000000e+00,1.292550515065055985e-04,inf,1.547328306854867515e+04,8.241246846484998393e-05,inf,2.426817248961577570e+04,1.283304857911131869e-04,inf,1.558476138908607572e+04,1.377518313005403707e-04,inf,1.451886324209001214e+04,2.051411138512953403e+04,inf,9.749386470865022017e-05
1.063552907211590745e+07,0.000000000000000000e+00,1.061016672263059504e-04,inf,1.884984517476212568e+04,6.474243720007624291e-05,inf,3.089163903143338393e+04,1.053822897852156414e-04,inf,1.897852100268735376e+04,1.145947619961756110e-04,inf,1.745280469334842928e+04,1.712603199516086534e+04,inf,1.167812836368120952e-04
1.074295865870293602e+07,0.000000000000000000e+00,9.942254553777105585e-05,inf,2.011616167321114699e+04,5.687635812287076355e-05,inf,3.516399548085292190e+04,9.830238749660505642e-05,inf,2.034538581343277474e+04,1.022086154938443896e-04,inf,1.956782205038724715e+04,1.609044140524392606e+04,inf,1.242973980408140604e-04
1.085038824528996646e+07,0.000000000000000000e+00,8.957715108257783101e-05,inf,2.232712221620304263e+04,4.935125950363986540e-05,inf,4.052581474344118033e+04,8.873065689608573012e-05,inf,2.254012389812734546e+04,8.439656480917693659e-05,inf,2.369764698980411777e+04,1.320547702618034600e+04,inf,1.514523099797853562e-04
1.095781783187699504e+07,0.000000000000000000e+00,8.274015258785371294e-05,inf,2.417206081263138549e+04,4.543301034583451713e-05,inf,4.402085586616578075e+04,8.194178903568683837e-05,inf,2.440757058805453926e+04,7.600958187289803293e-05,inf,2.631247206890792950e+04,1.270896630002139682e+04,inf,1.573692110582300332e-04
1.106524741846402362e+07,0.000000000000000000e+00,7.272913164135527480e-05,inf,2.749929711607829813e+04,3.785999533834634825e-05,inf,5.282620830051470693e+04,7.157402996043959542e-05,inf,2.794309613564361644e+04,6.490001306871553521e-05,inf,3.081663478068052791e+04,1.154895233830319194e+04,inf,1.731758813625726813e-04
1.117267700505105406e+07,0.000000000000000000e+00,6.359226527174209663e-05,inf,3.145036572378121127e+04,3.362754058474176725e-05,inf,5.947506018050824059e+04,6.217903965828710025e-05,inf,3.216517995439068909e+04,5.314183402045207096e-05,inf,3.763513316514976759e+04,1.067963823309177315e+04,inf,1.872722611336055079e-04
1.128010659163808264e+07,0.000000000000000000e+00,6.457529193052583894e-05,inf,3.097159827247433714e+04,3.643428301935663200e-05,inf,5.489335412302335317e+04,6.352330245980348123e-05,inf,3.148450918882197220e+04,5.320148404897346466e-05,inf,3.759293628273496142e+04,1.068520495104108522e+04,inf,1.871746970847887304e-04
1.138753617822511308e+07,0.000000000000000000e+00,5.497656576380904880e-05,inf,3.637913667784239078e+04,3.058919440508571302e-05,inf,6.538256527826319507e+04,5.330580456494807008e-05,inf,3.751936616139410762e+04,4.687766492959501212e-05,inf,4.266424112642503314e+04,9.244577316871056610e+03,inf,2.163430443001503522e-04
1.149496576481214166e+07,0.000000000000000000e+00,5.044853917161841260e-05,inf,3.964435904073055281e+04,2.829235906367455819e-05,inf,7.069046435819705948e+04,4.900875833062679100e-05,inf,4.080903226536449802e+04,3.957439009351463737e-05,inf,5.053773400610804674e+04,8.236693620596359324e+03,inf,2.428158788131777590e-04
1.160239535139917210e+07,0.000000000000000000e+00,4.364843130570779590e-05,inf,4.582066159473788139e+04,2.431139653691179116e-05,inf,8.226594457309010613e+04,4.219394963386618617e-05,inf,4.740016086085331335e+04,3.442792525797463586e-05,inf,5.809237661037196813e+04,7.845242855834961119e+03,inf,2.549315600233438496e-04
1.170982493798620068e+07,0.000000000000000000e+00,3.898485250664052160e-05,inf,5.130197682957318466e+04,2.244636039350211831e-05,inf,8.910130484133942809e+04,3.757030644280234810e-05,inf,5.323352906489684392e+04,3.070086693313101023e-05,inf,6.514474019108850916e+04,7.039692206382751465e+03,inf,2.841033302829119281e-04
1.181725452457322925e+07,0.000000000000000000e+00,3.779158176629690465e-05,inf,5.292183884675686568e+04,2.154718808407613440e-05,inf,9.281953599681277410e+04,3.559785299206520362e-05,inf,5.618316364320628782e+04,3.016526877672731508e-05,inf,6.630141487560726819e+04,6.899714194557883275e+03,inf,2.898670790708245083e-04
1.192468411116025969e+07,0.000000000000000000e+00,2.967896305611698686e-05,inf,6.738779910263036436e+04,1.693928758918523207e-05,inf,1.180687198012321314e+05,2.773625926037912931e-05,inf,7.210777708791368059e+04,2.402912280759063806e-05,inf,8.323233503006666433e+04,6.279520841954117714e+03,inf,3.184956384948667524e-04
1.203211369774728827e+07,0.000000000000000000e+00,3.130888076659980277e-05,inf,6.387963897238998470e+04,1.600517444444449211e-05,inf,1.249595877222202980e+05,2.950431279749374513e-05,inf,6.778669998949748697e+04,2.358923943837418479e-05,inf,8.478442067727148242e+04,6.137236973689152364e+03,inf,3.258795462150422192e-04
1.213954328433431871e+07,0.000000000000000000e+00,2.471301791486885669e-05,inf,8.092900700714008417e+04,1.465049309071785098e-05,inf,1.365141765274197387e+05,2.271623629723145020e-05,inf,8.804275381849901169e+04,2.142018299957512031e-05,inf,9.336988390994003566e+04,5.715722012501842983e+03,inf,3.499120488409783740e-04
1.224697287092134729e+07,0.000000000000000000e+00,2.222567858059343752e-05,inf,8.998600392549179378e+04,1.347697754192964539e-05,inf,1.484012267422416771e+05,1.975886352690220854e-05,inf,1.012203964705231047e+05,2.041842736360272438e-05,inf,9.795073657656612340e+04,5.576078508093001801e+03,inf,3.586750073725185881e-04
1.235440245750837773e+07,0.000000000000000000e+00,2.092660689191519729e-05,inf,9.557211115638061892e+04,1.242468016735708831e-05,inf,1.609699383050943725e+05,1.801293660983626808e-05,inf,1.110313128458946740e+05,1.881061917777324997e-05,inf,1.063229222333740618e+05,5.347880304380904818e+03,inf,3.739799483473161277e-04
1.246183204409540631e+07,0.000000000000000000e+00,1.732825349133943461e-05,inf,1.154184408139913721e+05,1.189098838444301216e-05,inf,1.681945970628145151e+05,1.516561900795447074e-05,inf,1.318772414730309683e+05,1.796084348168531288e-05,inf,1.113533449606306967e+05,5.127109475368923995e+03,inf,3.900833422044472322e-04
1.256926163068243489e+07,0.000000000000000000e+00,1.772441099682190460e-05,inf,1.128387284834803431e+05,1.187292874063230664e-05,inf,1.684504340664886113e+05,1.529461846800857000e-05,inf,1.307649487421577505e+05,1.835673091701775568e-05,inf,1.089518612568365206e+05,5.249367627942884610e+03,inf,3.809982728879206617e-04
1.267669121726946533e+07,0.000000000000000000e+00,1.520038127115939774e-05,inf,1.315756469737190637e+05,1.048573226010531157e-05,inf,1.907353678683298058e+05,1.313280513497330699e-05,inf,1.522903887969753996e+05,1.656617890636503417e-05,inf,1.207279005801128224e+05,4.997817098477991749e+03,inf,4.001747083960053696e-04
1.278412080385649391e+07,0.000000000000000000e+00,1.323374615042536972e-05,inf,1.511287867597274599e+05,9.231633758385474219e-06,inf,2.166463761826900300e+05,1.120851096467439227e-05,inf,1.784358338322864147e+05,1.565429647436238685e-05,inf,1.277604524275794247e+05,5.083811532156808425e+03,inf,3.934056145373074809e-04
1.289155039044352435e+07,0.000000000000000000e+00,1.345369691025001835e-05,inf,1.486580241358233907e+05,8.979706866408708536e-06,inf,2.227244196001097735e+05,1.105652802035558225e-05,inf,1.808886113541164959e+05,1.542019048305188635e-05,inf,1.297000839385331637e+05,5.325081500429095286e+03,inf,3.755811060992850594e-04
1.299897997703055292e+07,0.000000000000000000e+00,1.364625020891429320e-05,inf,1.465604081254143675e+05,9.218157768578572004e-06,inf,2.169630906966346374e+05,1.145278697696349155e-05,inf,1.746299834287379344e+05,1.565457997978756394e-05,inf,1.277581386777737353e+05,5.124219830912928046e+03,inf,3.903033175771619895e-04
1.310640956361758150e+07,0.000000000000000000e+00,1.267681792455732621e-05,inf,1.577682989455604984e+05,8.329602969752159241e-06,inf,2.401074825850323250e+05,1.019143468511174385e-05,inf,1.962432240204334958e+05,1.460481999174589860e-05,inf,1.369410921278266760e+05,5.093169003906249600e+03,inf,3.926828264418641542e-04
1.321383915020461194e+07,0.000000000000000000e+00,1.160977219496412332e-05,inf,1.722686687054483045e+05,8.230478494125794062e-06,inf,2.429992377025743481e+05,1.007989220441583805e-05,inf,1.984148202620492666e+05,1.393082217484862268e-05,inf,1.435665443789022393e+05,4.815623338268649604e+03,inf,4.153148740073711034e-04
1.332126873679164052e+07,0.000000000000000000e+00,1.177680409606788639e-05,inf,1.698253604021291831e+05,8.206578600255029550e-06,inf,2.437069206816403894e+05,1.005418135675773529e-05,inf,1.989222124639452959e+05,1.387593703617269444e-05,inf,1.441344101509159373e+05,4.787717936197916970e+03,inf,4.177355530656564481e-04
1.342869832337867096e+07,0.000000000000000000e+00,1.185321528988462528e-05,inf,1.687305892188403232e+05,8.075688792056704229e-06,inf,2.476568936097701080e+05,9.939967479037173731e-06,inf,2.012079017580174550e+05,1.390527120766667754e-05,inf,1.438303482277497242e+05,4.717582519531250000e+03,inf,4.239459493755129448e-04
1.353612790996569954e+07,0.000000000000000000e+00,1.125944461616907391e-05,inf,1.776286547142750933e+05,8.058271077970857732e-06,inf,2.481921966446948063e+05,9.923819296394261941e-06,inf,2.015353101730382768e+05,1.363767694328998914e-05,inf,1.466525426813281665e+05,4.710449951171875000e+03,inf,4.245878887859610941e-04
1.364355749655272998e+07,0.000000000000000000e+00,1.238422622508648683e-05,inf,1.614957578817995673e+05,7.975199472249577506e-06,inf,2.507774265658406948e+05,9.849688435029488166e-06,inf,2.030521080125934386e+05,1.428390904883209673e-05,inf,1.400176935573198134e+05,4.673187874930245925e+03,inf,4.279733778154281437e-04
1.375098708313975856e+07,0.000000000000000000e+00,1.127906046044221162e-05,inf,1.773197339454271423e+05,7.940782001912194865e-06,inf,2.518643629202245211e+05,9.817451715015953754e-06,inf,2.037188527182636608e+05,1.342290963030360567e-05,inf,1.489989916556387616e+05,4.657821790193256675e+03,inf,4.293852556168789103e-04
1.385841666972678714e+07,0.000000000000000000e+00,1.195358170333646564e-05,inf,1.673138687328972737e+05,7.892876460068186162e-06,inf,2.533930449967694294e+05,9.773810638257095007e-06,inf,2.046284784945094725e+05,1.368618552217210707e-05,inf,1.461327553071620350e+05,4.639162326388888687e+03,inf,4.311123128034182470e-04
1.396584625631381758e+07,0.000000000000000000e+00,1.148587562767033955e-05,inf,1.741269072409115615e+05,7.859164755548893672e-06,inf,2.544799685727313044e+05,9.742471941838933691e-06,inf,2.052867087469888502e+05,1.357318770184671624e-05,inf,1.473493216135136609e+05,4.625443855794271258e+03,inf,4.323909363843233232e-04
1.407327584290084615e+07,0.000000000000000000e+00,9.799810018288704710e-06,inf,2.040855890336179000e+05,7.829286497932722383e-06,inf,2.554511193999719399e+05,9.713654700741850362e-06,inf,2.058957273668845010e+05,1.260350878358925361e-05,inf,1.586859686727996741e+05,4.612050476074218750e+03,inf,4.336465982701910257e-04
1.418070542948787659e+07,0.000000000000000000e+00,1.171705829645159427e-05,inf,1.706913074423878279e+05,7.808059409500048731e-06,inf,2.561455920233655488e+05,9.694510228857527195e-06,inf,2.063023250051998475e+05,1.341990676451132458e-05,inf,1.490323319748360664e+05,4.605118476019964874e+03,inf,4.342993585104300259e-04
1.428813501607490517e+07,0.000000000000000000e+00,9.742248214668810719e-06,inf,2.052914230812369206e+05,7.790512123998874855e-06,inf,2.567225322503443749e+05,9.680118561542864014e-06,inf,2.066090396811452229e+05,1.258207883362653415e-05,inf,1.589562445479877642e+05,4.597301350911458030e+03,inf,4.350378292263745663e-04
1.439556460266193561e+07,0.000000000000000000e+00,1.352722995306976372e-05,inf,1.478499298776343931e+05,7.785472348587063607e-06,inf,2.568887166316848306e+05,9.671093039287370630e-06,inf,2.068018570264290611e+05,1.496674320833335514e-05,inf,1.336296061314406106e+05,4.593771667480468750e+03,inf,4.353720961270444805e-04
1.450299418924896419e+07,0.000000000000000000e+00,9.675370893091895364e-06,inf,2.067104219671803294e+05,7.780654232192319564e-06,inf,2.570477931952091167e+05,9.668516031524632804e-06,inf,2.068569771699100093e+05,1.259559485333738849e-05,inf,1.587856725536127051e+05,4.593863281250000000e+03,inf,4.353634136573162716e-04
